﻿Actions for vSim Medical Surgical;;;* Works with all patient positions;* Not currently implemented;;;;Type A: once and done action;Type C - IV: ongoing action (toggle on/off);;;;
;;;* Missing animation/pose/Prop - see note;* Missing ACTIONID;;;;Type B: ongoing action (toggle on/off);Type D: action with setting (1 slider);;;;
Id;Category;Action Name;Aliases;Icon;System Type;Action type;Heading;Notes;Needed 2.1;Include Anyway;Child or Infant;hasPopup;Note
;;;;;;;;;;;;;
Safety_Measures_Menu;;Safety Measures;;Icon_Group;category;;0;;;;;;
start.washHands;Safety_Measures_Menu;Wash Hands;hand hygiene, sanitize, sanitization, sink, water;WashHands;action;;0;;;;;;
start.identifyPatient;Safety_Measures_Menu;Identify Patient;id, hello, person, safety, rights;IdentifyPatient;action;;0;;;;;;
start.obtainLegalConsent;Safety_Measures_Menu;Verify Signed Consent;legal consent, signature;ObtainLegalConsent;action;;0;;;;;;
start.askQuestion.104;Safety_Measures_Menu;Ask about Allergies;allergy, allergies, medication, food, latex, nuts, rights;AskAboutAllergies;question;;0;;;;;;
start.verifyBlood;Safety_Measures_Menu;Verify Blood;check blood, safety;VerifyBlood;action;;0;;;;;;
Call_For_Assistance_Menu;;Call for Assistance;;Icon_Group;category;;0;;;;;;
start.shoutForHelp;Call_For_Assistance_Menu;Shout for Help;help, guidance, assistance;ShoutForHelp;action;;0;;;;;;
start.callProvider;Call_For_Assistance_Menu;Call Provider;help, guidance, orders, sbar, assistance;CallProvider;action;;0;;;;;;
start.phoneForBloodBank;Call_For_Assistance_Menu;Call Blood Bank;help, guidance, assistance;CallBloodBank;action;;0;;;;;;
start.phoneForCodeTeam;Call_For_Assistance_Menu;Call Code Team;help, guidance, assistance, code blue, cardiac arrest;CallCodeTeam;action;;0;;;;;;
start.callForChestTubeAssitance;Call_For_Assistance_Menu;Request Chest Tube Insertion;help, guidance, assistance;ChestTubeInsertion;action;;0;;;;;;
Communication_Menu;;Communication;question, response, communicate, history, whats wrong, hello, reassess, ask, communication, what's;Icon_Group;category;;0;;;;;;
start.educatePatient;Communication_Menu;Educate Patient;education, tell, instruct, cope;EducatePatient;action;;0;;;;;;
Q_Current_Illness;Communication_Menu;Ask about: Pain assessment;;Icon_Group;category;;0;;;;;;
start.askQuestion.103;Q_Current_Illness;Do you have any pain?;painassess, reassess;Icon_Question;question;;0;;;;;;
start.askQuestion.611;Q_Current_Illness;Where is your pain located?;location;Icon_Question;question;;0;;;;;;
start.askQuestion.601;Q_Current_Illness;Does anything make the pain better?;change;Icon_Question;question;;0;;;;;;
start.askQuestion.602;Q_Current_Illness;Does anything make the pain worse?;change;Icon_Question;question;;0;;;;;;
start.askQuestion.604;Q_Current_Illness;Does the pain go anywhere?;location;Icon_Question;question;;0;;;;;;
start.askQuestion.603;Q_Current_Illness;Can you describe the pain?;description;Icon_Question;question;;0;;;;;;
start.askQuestion.605;Q_Current_Illness;How would you rate your pain, on a scale of 0 - 10?;rating, painscale, pain level, painlevel;Icon_Question;question;;0;;;;;;
start.askQuestion.606;Q_Current_Illness;How long have you had the pain?;history;Icon_Question;question;;0;;;;;;
start.askQuestion.804;Q_Current_Illness;Do you need something for the pain?;medication, medication, painkiller, killer;Icon_Question;question;;0;;;;;;
start.askQuestion.610;Q_Current_Illness;Is the pain better after the medication?;painassess, reassess;Icon_Question;question;;0;;;;;;
Questions_Menu;Communication_Menu;Ask about: Current illness;;Icon_Group;category;;0;;;;;;
start.askQuestion.806;Questions_Menu;What do you need?;help, for;Icon_Question;question;;0;;;;;;
start.askQuestion.800;Questions_Menu;How are you feeling?;good, how are you feeling, feeling, nauseated;Icon_Question;question;;0;;;;;;
start.askQuestion.101;Questions_Menu;What happened?;started, history, signs;Icon_Question;question;;0;;;;;;
start.askQuestion.607;Questions_Menu;When did the symptoms start?;started, history, signs;Icon_Question;question;;0;;;;;;
start.askQuestion.600;Questions_Menu;What were you doing when the symptoms started?;started, history, signs;Icon_Question;question;;0;;;;;;
start.askQuestion.107;Questions_Menu;What other symptoms do you have?;started, history, signs;Icon_Question;question;;0;;;;;;
start.askQuestion.102;Questions_Menu;Do you have difficulty in breathing?;labored breathing, out of breath;Icon_Question;question;;0;;;;;;
start.askQuestion.108;Questions_Menu;Have you had anything to eat or drink today?;diet, food, water, breakfast, lunch, dinner, drunken, eaten;Icon_Question;question;;0;;;;;;
start.askQuestion.112;Questions_Menu;Do you feel better now?;good, how are you feeling, feeling, nauseated;Icon_Question;question;;0;;;;;;
start.askQuestion.803;Questions_Menu;What did the emesis look like?;vomit, nausea, throw up;Icon_Question;question;;0;;;;;;
start.askQuestion.807;Questions_Menu;Do you feel nauseated?;vomit, nausea, throw up;Icon_Question;question;;0;;;;;;
start.askQuestion.805;Questions_Menu;Do you need something for the nausea?;vomit, nausea, throw up;Icon_Question;question;;0;;;;;;
start.askQuestion.801;Questions_Menu;Can you move your toes?;neurology, neurovascular, perifer, ischemia;Icon_Question;question;;0;;;;;;
start.askQuestion.802;Questions_Menu;Can you feel your toes?;neurology, neurovascular, perifer, ischemia;Icon_Question;question;;0;;;;;;
Q_Medical_History;Communication_Menu;Ask about: Past medical history;;Icon_Group;category;;0;;;;;;
start.askQuestion.104;Q_Medical_History;Are you allergic to anything?;allergy, allergies, medication, food, latex, nuts, rights;Icon_Question;question;;0;;;;;;
start.askQuestion.105;Q_Medical_History;Do you take any medication?;meds, drugs, prescribe, prescription;Icon_Question;question;;0;;;;;;
start.askQuestion.113;Q_Medical_History;Have you taken your medication?;meds, drugs, prescribe, prescription, digest, dose;Icon_Question;question;;0;;;;;;
start.askQuestion.106;Q_Medical_History;Do you have any medical problems?;history, sick, diagnoses, diagnosis, surgery, illness;Icon_Question;question;;0;;;;;;
start.askQuestion.114;Q_Medical_History;Are you a smoker? How many packs a day if so?;smoking, cigarettes, do you smoke,;Icon_Question;question;;0;;;;;;
start.askQuestion.929;Q_Medical_History;Have you had any previous reactions on blood transfusions?;packed red blood cells, prbc;Icon_Question;question;;0;;;;;;
Q_Orientation;Communication_Menu;Ask about: Orientation;;Icon_Group;category;;0;;;;;;
start.askQuestion.1;Q_Orientation;Are you awake?;conscious, hello, GCS, glasgow coma scale, scale, glascow, shake, tap and shout, neurological, responsiveness, loc;Icon_Question;question;;0;;;;;;
start.askQuestion.2;Q_Orientation;What year is it?;orientation, oriented;Icon_Question;question;;0;;;;;;
start.askQuestion.3;Q_Orientation;Can you tell me where you are?;orientation, oriented, hospital, location;Icon_Question;question;;0;;;;;;
start.askQuestion.4;Q_Orientation;Can you tell me todays date?;orientation, oriented;Icon_Question;question;;0;;;;;;
Assessments_Menu;;Assessment;;Icon_Group;category;;0;;;;;;
HeadToToe_Menu;Assessments_Menu;Head to Toe Assessments;;Icon_Group;category;;0;;;;;;
start.assessDressing;HeadToToe_Menu;Assess Dressing;bandage;AssessDressing;action;;0;;;;;;
start.checkSkin;HeadToToe_Menu;Check Skin;vitals, vital signs, skincheck, touch, color;CheckSkin;action;;0;;;;;;
start.examineHead;HeadToToe_Menu;Examine Head and Neck;throat, head to toe, head-to-toe;HeadNeckExam;action;;0;;;;;;
start.examineArms;HeadToToe_Menu;Examine Arms;head to toe, head-to-toe;ArmsExam;action;;0;;;;;;
start.examineChest;HeadToToe_Menu;Examine Chest;head to toe, head-to-toe;ChestExam;action;;0;;;;;;
start.examineAbdomenAndPelvis;HeadToToe_Menu;Examine Abdomen and Pelvis;stomach, bowel, head to toe, head-to-toe;AbdomenPelvisExam;action;;0;;;;;;
start.examineLegs;HeadToToe_Menu;Examine Legs;head to toe, head-to-toe;LegsExam;action;;0;;;;;;
start.examineBackAndSpine;HeadToToe_Menu;Examine Back;head to toe, head-to-toe;BackExam;action;;0;;;;;;
Auscultate_Menu;Assessments_Menu;Auscultate;;Icon_Group;category;;0;;;;;;
start.auscultateCarotids;Auscultate_Menu;Auscultate Neck;listen, stethoscope, stethescope, stetoscope, neck sounds, sounds;AuscultateNeck;action;;0;;;;;;
start.auscultateLungs;Auscultate_Menu;Auscultate Lungs;listen, stethoscope, stethescope, stetoscope, lungsounds, lung sounds, sounds;AuscultateLungs;action;;0;;;;;;
start.auscultateHeart;Auscultate_Menu;Auscultate Heart;listen, stethoscope, stethescope, stetoscope, heartsounds, heart sounds, sounds;AuscultateHeart;action;;0;;;;;;
start.auscultateAbdomen;Auscultate_Menu;Auscultate Abdomen;listen, stethoscope, stethescope, stetoscope, stomach, bowel sounds, sounds;AuscultateAbdomen;action;;0;;;;;;
VitalSigns_menu;Assessments_Menu;Vital Signs;;Icon_Group;category;;0;;;;;;
start.checkNormalBreathing;VitalSigns_menu;Assess Respiration;vitals, vital signs, normal breathing, breathing, rr, respiration rate, rate;AssessRespiration;action;;0;;;;;;
toggle.attachPulseOximeter;VitalSigns_menu;Attach Pulse Oximeter;vitals, vital signs, pulseox, attach, saturation, spo2, sats;AttachPulseOximeter;action;;0;;;;;;
start.checkPulseRateArm;VitalSigns_menu;Check Radial Pulse;vitals, vital signs, pulsecheck;CheckRadialPulse;action;;0;;;;;;
start.meassureBloodPressAusc;VitalSigns_menu;Measure Blood Pressure;vitals, vital signs, bp, systolic, diastolic, bloodpressure, manual, cuff;MeasureBloodPressure;action;;0;;;;;;
start.meassureTemperature;VitalSigns_menu;Measure Temperature;vitals, vital signs, fever, fahrenheit, celsius, thermometer;CheckTemperature;action;;0;;;;;;
start.checkSkin;VitalSigns_menu;Check Skin;vitals, vital signs, skincheck, touch, color;CheckSkin;action;;0;;;;;;
AskAboutPain_Menu;Assessments_Menu;Ask about: Pain assessment;;Icon_Group;category;;0;;;;;;
start.askQuestion.103;AskAboutPain_Menu;Do you have any pain?;painassess, reassess;Icon_Question;question;;0;;;;;;
start.askQuestion.611;AskAboutPain_Menu;Where is your pain located?;location;Icon_Question;question;;0;;;;;;
start.askQuestion.601;AskAboutPain_Menu;Does anything make the pain better?;change;Icon_Question;question;;0;;;;;;
start.askQuestion.602;AskAboutPain_Menu;Does anything make the pain worse?;change;Icon_Question;question;;0;;;;;;
start.askQuestion.604;AskAboutPain_Menu;Does the pain go anywhere?;location;Icon_Question;question;;0;;;;;;
start.askQuestion.603;AskAboutPain_Menu;Can you describe the pain?;description;Icon_Question;question;;0;;;;;;
start.askQuestion.605;AskAboutPain_Menu;How would you rate your pain, on a scale of 0 - 10?;rating, painscale;Icon_Question;question;;0;;;;;;
start.askQuestion.606;AskAboutPain_Menu;How long have you had the pain?;history;Icon_Question;question;;0;;;;;;
start.askQuestion.804;AskAboutPain_Menu;Do you need something for the pain?;medication, medication, painkiller, killer;Icon_Question;question;;0;;;;;;
start.askQuestion.610;AskAboutPain_Menu;Is the pain better after the medication?;painassess, reassess;Icon_Question;question;;0;;;;;;
Neurological_Assessments_Menu;Assessments_Menu;Neurological Assessments;;Icon_Group;category;;0;;;;;;
start.checkEyeMovement;Neurological_Assessments_Menu;Test Eye Movement;eyes, neurological;TestEyeMovement;action;;0;;;;;;
start.checkPupilResponsiveness;Neurological_Assessments_Menu;Test Pupil Response;eyes, neurological, responsiveness, pupils, neurological, pupilsize, size, reaction, mm, pinpoint, dilated, reflexes;TestPupilResponsiveness;action;;0;;;;;;
start.checkCorneaReflex;Neurological_Assessments_Menu;Corneal Reflex;eyes, reflexes, neurological;CornealReflex;action;;0;;;;;;
start.checkSilieReflex;Neurological_Assessments_Menu;Ciliary Reflex;eyes, eyelashes, reflexes, neurological, silie, cilie;CiliaryReflex;action;;0;;;;;;
start.shakeNShout;Neurological_Assessments_Menu;Check Responsiveness;conscious, hello, GCS, glasgow coma scale, scale, glascow, shake, tap and shout, neurological, responsiveness, loc;CheckResponsiveness;action;;0;;;;;;
Respiratory_Assessments_Menu;Assessments_Menu;Respiratory Assessments;;Icon_Group;category;;0;;;;;;
start.checkNormalBreathing;Respiratory_Assessments_Menu;Assess Respiration;vitals, vital signs, normal breathing, breathing, rr, respiration rate, rate;AssessRespiration;action;;0;;;;;;
toggle.attachPulseOximeter;Respiratory_Assessments_Menu;Attach Pulse Oximeter;vitals, vital signs, pulseox, attach, saturation, spo2, sats;AttachPulseOximeter;action;;0;;;;;;
start.checkChestTube;Respiratory_Assessments_Menu;Check Chest Tube;pneumothorax, drainage;CheckChestTube;action;;0;;;;;;
Cardiovascular_Assessments_Menu;Assessments_Menu;Cardiovascular Assessments;;Icon_Group;category;;0;;;;;;
start.checkPulseRateFoot;Cardiovascular_Assessments_Menu;Check Pedal Pulse;foot, perfusion;CheckPedalPulse;action;;0;;;;;;
start.checkPulseRateArm;Cardiovascular_Assessments_Menu;Check Radial Pulse;vitals, vital signs, pulsecheck;CheckRadialPulse;action;;0;;;;;;
start.checkPulseRateNeck;Cardiovascular_Assessments_Menu;Check Carotid Pulse;neckpulse, pulsecheck;CheckCarotidPulse;action;;0;;;;;;
start.checkCapillResponse;Cardiovascular_Assessments_Menu;Capillary Refill Time;caprefill, response, seconds, perfusion, ;CapillaryRefill;action;;0;;;;;;
toggle.attachNIBP;Cardiovascular_Assessments_Menu;NIBP Automatic;bp, blood pressure, pressure, systolic, diastolic, cuff, measure;NIBPAutomatic;action;;0;;;;;;
start.NIBPRemeasure;Cardiovascular_Assessments_Menu;NIBP Remeasure;bp, blood pressure, pressure, systolic, diastolic, cuff, measure;NIBPRemeasure;action;;0;;;;;;
start.assessIV;Cardiovascular_Assessments_Menu;Assess IV Access;arm, hand, site, IV site, intravenous;AssessIVAccess;action;;0;;;;;;
toggle.attach3Lead;Cardiovascular_Assessments_Menu;ECG Monitoring;3, 5, 3-lead, ekg, three, five, lead, 3 lead, heart rate, hr;ECGMonitoring;action;;0;;;;;;
start.obtain12LeadECG;Cardiovascular_Assessments_Menu;Obtain 12-Lead ECG;12, twelve, ekg, electrocardiogram, electrokardiogram, lead;ECG12Lead;action;;0;;;;;;
Gastrointestinal_and_Genitourinary_Assessments_Menu;Assessments_Menu;Gastrointestinal and Genitourinary Assessments;;Icon_Group;category;;0;;;;;;
start.checkUrinaryOutput;Gastrointestinal_and_Genitourinary_Assessments_Menu;Check Urinary Catheter;urine;CheckUrinaryCatheter;action;;0;;;;;;
Postoperative_Assessments_Menu;Assessments_Menu;Postoperative Assessments;;Icon_Group;category;;0;;;;;;
start.assessDressing;Postoperative_Assessments_Menu;Assess Dressing;bandage;AssessDressing;action;;0;;;;;;
Interventions_Menu;;Interventions;;Icon_Group;category;;0;;;;;;
Comfort_Measures_Menu;Interventions_Menu;Comfort Measures;;Icon_Group;category;;0;;;;;;
start.supine;Comfort_Measures_Menu;Supine Position;laying, down, supine, lower, lay down, fowler, semi-fowler, semifowler, position;PositionPatientDown;action;;0;;;;;;
start.sitUp;Comfort_Measures_Menu;Sitting Position;sitting, raise, up, sit up, fowler, fowlers, fowler's, semi-fowler, semifowler, semi-fowler's, semifowlers, semi-fowlers, semifowler's, position;PositionPatientUp;action;;0;;;;;;
toggle.elevateLeftLeg;Comfort_Measures_Menu;Orthopedic Pillow;leg, raise, lower, lift, down;PillowUnderLeg;action;;0;;;;;;
start.getEmesisBasin;Comfort_Measures_Menu;Emesis Basin;vomit, nausea, throw up, basin;EmesisBasin;action;;0;;;;;;
start.provideOralIntakeOfProteinAndCarbs;Comfort_Measures_Menu;Provide Carbs and Protein;carbos, carbohydrates, carbonhydrates, protein, bar, eat, nutrition, sugar;ProvideCarbsAndProtein;action;;0;;;;;;
start.giveWater;Comfort_Measures_Menu;Give Water;sip, drink, fluids;GiveWater;action;;0;;;;;;
Respiratory_Interventions_Menu;Interventions_Menu;Respiratory Interventions;;Icon_Group;category;;0;;;;;;
toggle.performHeadtilt;Respiratory_Interventions_Menu;Head Tilt Chin Lift;airway, jawthrust, open airway;HeadTiltChinLift;action;;0;;;;;;
toggle.insertNasalAirway;Respiratory_Interventions_Menu;Nasopharyngeal Airway;npa, device;NasopharyngealAirway;action;;0;;;;;;
toggle.insertOralAirway;Respiratory_Interventions_Menu;Oropharyngeal Airway;opa, device;OropharyngealAirway;action;;0;;;;;;
start.performSuction;Respiratory_Interventions_Menu;Suction;clear airway, airway, secretions;Suction;action;;0;;;;;;
start.callForChestTubeAssitance;Respiratory_Interventions_Menu;Request Chest Tube Insertion;call assistance, assistance, pneumothorax, doctor, provider, physician;ChestTubeInsertion;action;;0;;;;;;
Ventilation_And_Oxygen_Therapy_Menu;Interventions_Menu;Ventilation and Oxygen Therapy;;Icon_Group;category;;0;;;;;;
toggle.ventilate;Ventilation_And_Oxygen_Therapy_Menu;Ventilate;ventilations, bag-mask, ppv, positive pressure ventilation, assist, o2;Ventilate;action;;0;;;;;;
toggle.attachNasalOxygenMask;Ventilation_And_Oxygen_Therapy_Menu;Attach Nasal Cannula;low flow, low-flow, oxygen, o2, nc;AttachNasalCannula;action;;0;;;;;;
toggle.hudson;Ventilation_And_Oxygen_Therapy_Menu;Attach Simple Oxygen Mask;o2, hudson, sm, hm;AttachSimpleOxygenMask;action;;0;;;;;;
toggle.attachNonRebreatherMask;Ventilation_And_Oxygen_Therapy_Menu;Attach Non-Rebreather Mask;oxygen, o2, reservoir mask, nonrebreather, nrb;AttachNonRebreatherMask;action;;0;;;;;;
toggle.startHumidWarmOxygen;Ventilation_And_Oxygen_Therapy_Menu;Warm and Humidify Oxygen;mask, warm;WarmAndHumidifyOxygen;action;;0;;;;;;
test_oxygen;Ventilation_And_Oxygen_Therapy_Menu;Oxygen Rate;o2;AttachSimpleOxygenMask;action;;1;;;;;;
test_ventilation;Ventilation_And_Oxygen_Therapy_Menu;Ventilation Rate;ventilations, bag-mask, ppv, positive pressure ventilation, assist, o2;AttachSimpleOxygenMask;action;;1;;;;;;
Cardiovascular_Interventions_Menu;Interventions_Menu;Cardiovascular Interventions;;Icon_Group;category;;0;;;;;;
toggle.elevateLeftLeg;Cardiovascular_Interventions_Menu;Orthopedic Pillow;leg, raise, lower, lift, down;PillowUnderLeg;action;;0;;;;;;
toggle.spinalBackboard;Cardiovascular_Interventions_Menu;Place CPR Backboard;compressions;CPRBackboard;action;;0;;;;;;
toggle.cpr;Cardiovascular_Interventions_Menu;Start CPR;compressions, resuscitate, resuscitation, heart, cardiac arrest, arrest;StartCPR;action;;0;;;;;;
toggle.attachShockElectrodes;Cardiovascular_Interventions_Menu;Attach Shock Pads;electrodes, aed;AttachPads;action;;0;;;;;;
toggle.toggleDefibPower;Cardiovascular_Interventions_Menu;Turn on AED;aed, defibrillator, defibrillate, start;TurnOnAED;action;;0;;;;;;
start.shock;Cardiovascular_Interventions_Menu;Press Shock Button;aed, defibrillator, defibrillate, shock;PressShockButton;action;;0;;;;;;
start.standClear;Cardiovascular_Interventions_Menu;Stand Clear;stay, safe, aed, defibrillator, defibrillate, shock;StandClear;action;;0;;;;;;
Gastrointestinal_And_Genitourinary_Interventions_Menu;Interventions_Menu;Gastrointestinal and Genitourinary Interventions;;Icon_Group;category;;0;;;;;;
toggle.nasogastricTube;Gastrointestinal_And_Genitourinary_Interventions_Menu;Insert Nasogastric Tube;ng tube, ngtube, feeding tube;InsertNasogastricTube;action;;0;;;;;;
toggle.insertUrinaryCatheter;Gastrointestinal_And_Genitourinary_Interventions_Menu;Insert Urinary Catheter;urine;InsertUrinaryTube;action;;0;;;;;;
start.provideOralIntakeOfProteinAndCarbs;Gastrointestinal_And_Genitourinary_Interventions_Menu;Provide Carbs and Protein;carbos, carbohydrates, carbonhydrates, protein, bar, eat, nutrition, sugar;ProvideCarbsAndProtein;action;;0;;;;;;
Postoperative_Interventions_Menu;Interventions_Menu;Postoperative Interventions;;Icon_Group;category;;0;;;;;;
start.loosenRestrictiveDressing;Postoperative_Interventions_Menu;Loosen Dressing on Leg;perfusion, bandage, splint, ace, release;LoosenDressingOnLeg;action;;0;;;;;;
start.phoneForBloodBank;Postoperative_Interventions_Menu;Call Blood Bank;help, guidance, assistance;CallBloodBank;action;;0;;;;;;
Drugs_and_IV_Management_Menu;;Drugs & IV Management;stop, drugs & iv management, running drugs, active drugs;Icon_Group;category;;0;;;;;;
Select_Drugs_and_Fluids_Menu;Drugs_and_IV_Management_Menu;Select Drugs and Fluids;;Icon_Group;category;;0;;;;;;
Paracetamol;Select_Drugs_and_Fluids_Menu;Acetaminophen;drugs;Icon_Drugs;drug;;0;;;;;;
Salbutamol;Select_Drugs_and_Fluids_Menu;Albuterol;drugs;Icon_Drugs;drug;;0;;;;;;
Acetylsalicylic;Select_Drugs_and_Fluids_Menu;Aspirin;drugs;Icon_Drugs;drug;;0;;;;;;
Ceftriaxone;Select_Drugs_and_Fluids_Menu;Ceftriaxone;drugs;Icon_Drugs;drug;;0;;;;;;
Ciprofloxacin;Select_Drugs_and_Fluids_Menu;Ciprofloxacin;drugs;Icon_Drugs;drug;;0;;;;;;
Dexnskcl;Select_Drugs_and_Fluids_Menu;D5 ½ normal saline with 20 mEq KCl/L;drugs, infusion, fluids;Icon_Drugs;drug;;0;;;;;;
Glucose;Select_Drugs_and_Fluids_Menu;Dextrose 50% in water;drugs;Icon_Drugs;drug;;0;;;;;;
Diphenhydramine;Select_Drugs_and_Fluids_Menu;Diphenhydramine;drugs;Icon_Drugs;drug;;0;;;;;;
Enoxaparin;Select_Drugs_and_Fluids_Menu;Enoxaparin;drugs;Icon_Drugs;drug;;0;;;;;;
Adrenaline;Select_Drugs_and_Fluids_Menu;Epinephrine 1:1000;drugs;Icon_Drugs;drug;;0;;;;;;
Adrenaline10K;Select_Drugs_and_Fluids_Menu;Epinephrine 1:10000;drugs;Icon_Drugs;drug;;0;;;;;;
Fentanyl;Select_Drugs_and_Fluids_Menu;Fentanyl;drugs;Icon_Drugs;drug;;0;;;;;;
Gabapentin;Select_Drugs_and_Fluids_Menu;Gabapentin;drugs;Icon_Drugs;drug;;0;;;;;;
Glucagon;Select_Drugs_and_Fluids_Menu;Glucagon;drugs;Icon_Drugs;drug;;0;;;;;;
Heparinuf;Select_Drugs_and_Fluids_Menu;Heparin;drugs;Icon_Drugs;drug;;0;;;;;;
Heparinufd5w;Select_Drugs_and_Fluids_Menu;Heparin in dextrose 5% in water;drugs, fluids, infusion;Icon_Drugs;drug;;0;;;;;;
Hydrochlorothiazide;Select_Drugs_and_Fluids_Menu;Hydrochlorothiazide;drugs;Icon_Drugs;drug;;0;;;;;;
Ipratropium;Select_Drugs_and_Fluids_Menu;Ipratropium;drugs;Icon_Drugs;drug;;0;;;;;;
Ipratropiumfenoterol;Select_Drugs_and_Fluids_Menu;Ipratropium/fenoterol;drugs;Icon_Drugs;drug;;0;;;;;;
Ketorolac;Select_Drugs_and_Fluids_Menu;Ketorolac;drugs;Icon_Drugs;drug;;0;;;;;;
RingerLactate;Select_Drugs_and_Fluids_Menu;Lactated Ringer's solution;drugs, fluids, infusion;Icon_Drugs;drug;;0;;;;;;
Methylprednisolone;Select_Drugs_and_Fluids_Menu;Methylprednisolone;drugs;Icon_Drugs;drug;;0;;;;;;
Metronidazole;Select_Drugs_and_Fluids_Menu;Metronidazole;drugs;Icon_Drugs;drug;;0;;;;;;
Morphine;Select_Drugs_and_Fluids_Menu;Morphine;drugs;Icon_Drugs;drug;;0;;;;;;
Naloxone;Select_Drugs_and_Fluids_Menu;Naloxone;drugs;Icon_Drugs;drug;;0;;;;;;
Saline;Select_Drugs_and_Fluids_Menu;Normal saline;drugs, fluids, infusion;Icon_Drugs;drug;;0;;;;;;
Ondansetron;Select_Drugs_and_Fluids_Menu;Ondansetron;drugs;Icon_Drugs;drug;;0;;;;;;
Oxycodone;Select_Drugs_and_Fluids_Menu;Oxycodone;drugs;Icon_Drugs;drug;;0;;;;;;
Sagm;Select_Drugs_and_Fluids_Menu;Packed red blood cells;sagm, prbc, transfusion;Icon_Drugs;drug;;0;;;;;;
Prednisone;Select_Drugs_and_Fluids_Menu;Prednisone;drugs;Icon_Drugs;drug;;0;;;;;;
Ranitidine;Select_Drugs_and_Fluids_Menu;Ranitidine;drugs;Icon_Drugs;drug;;0;;;;;;
Ticagrelor;Select_Drugs_and_Fluids_Menu;Ticagrelor;drugs;Icon_Drugs;drug;;0;;;;;;
start.flushIV;Drugs_and_IV_Management_Menu;Flush IV;site, iv site, saline;FlushIV;action;;0;;;;;;
start.assessIV;Drugs_and_IV_Management_Menu;Assess IV Access;iv site, fluids, fluid rate;AssessIVAccess;action;;0;;;;;;
toggle.insertIVHand;Drugs_and_IV_Management_Menu;Insert IV Hand;iv site, obtain;InsertIVHand;action;;0;;;;;;
toggle.insertIVArm;Drugs_and_IV_Management_Menu;Insert IV Arm;iv site, obtain;InsertIV;action;;0;;;;;;
Test_And_Diagnostics_Menu;;Test and Diagnostics;;Icon_Group;category;;0;;;;;;
start.bloodGlucose;Test_And_Diagnostics_Menu;Bedside Blood Glucose;capillary, blood sugar, sugar, bg;BedsideBloodGlucose;action;;0;;;;;;
start.urineCulture;Test_And_Diagnostics_Menu;Urine Sample;dipstick, culture, stick, bladder;UrineSample;action;;0;;;;;;
start.obtainVenousBloodSample;Test_And_Diagnostics_Menu;Venous Blood Sample;blood count;VenousBloodSample;action;;0;;;;;;
start.performArterialPuncture;Test_And_Diagnostics_Menu;Arterial Blood Gases;blood sample, abg, co2, o2;ArterialBloodGases;action;;0;;;;;;
start.orderChestXRay;Test_And_Diagnostics_Menu;Chest Radiology;x-ray, xray, thorax;RadiologyChest;action;;0;;;;;;
start.orderAbdomenXRay;Test_And_Diagnostics_Menu;Abdominal Radiology;abdomen, x-ray, xray, kub, stomach, bowel;RadiologyAbdomen;action;;0;;;;;;
start.spiralScanAbdomen;Test_And_Diagnostics_Menu;Spiral CT Scan Abdomen;ct-scan, radiology, abdominal, stomach, bowel;CTScan;action;;0;;;;;;
start.orderCtChest;Test_And_Diagnostics_Menu;Spiral CT Scan Chest;ct-scan, radiology, thorax;CTScan;action;;0;;;;;;
