<svg width="1920" height="104" viewBox="0 0 1920 104" fill="none" xmlns="http://www.w3.org/2000/svg">
<rect width="1920" height="104" fill="white"/>
<path d="M196.17 37.9854C195.454 37.4538 194.578 37.1838 193.688 37.22C191.83 37.22 190.308 38.4906 189.699 41.4757L189.242 43.7719H193.536L192.546 46.1447H188.891C187.445 54.9009 186.257 66.3054 180.059 70.8519L178.536 69.0915C183.333 64.8817 184.445 57.1205 186.272 46.1293H183.76L184.11 43.7566H186.501L187.003 41.1848C187.993 36.0566 191.1 34.7095 193.886 34.7095C195.1 34.696 196.295 35.0134 197.343 35.628L196.17 37.9854Z" fill="#1D1D1B"/>
<path d="M206.556 59.7536C204.954 61.3115 202.816 62.1887 200.587 62.2028C199.711 62.2609 198.832 62.1418 198.003 61.8525C197.174 61.5633 196.411 61.1098 195.759 60.519C195.062 59.739 194.528 58.8264 194.188 57.8351C193.848 56.8438 193.709 55.794 193.78 54.7478C193.7 51.4932 194.885 48.3355 197.084 45.9457C197.908 45.1135 198.888 44.4548 199.968 44.008C201.048 43.5611 202.206 43.3352 203.373 43.3433C204.252 43.2933 205.131 43.4281 205.954 43.7392C206.777 44.0502 207.527 44.5306 208.155 45.1496C209.478 46.6787 210.15 48.6686 210.028 50.6912C210.095 52.3599 209.821 54.0246 209.224 55.5831C208.627 57.1416 207.719 58.5608 206.556 59.7536V59.7536ZM206.023 46.8642C205.647 46.4894 205.196 46.1989 204.7 46.0116C204.204 45.8243 203.674 45.7445 203.145 45.7773C202.367 45.7843 201.599 45.9555 200.89 46.2798C200.182 46.6042 199.549 47.0744 199.033 47.6602C197.348 49.6575 196.449 52.206 196.506 54.8244C196.462 55.5747 196.575 56.326 196.837 57.0299C197.099 57.7338 197.505 58.3748 198.028 58.9116C198.787 59.5718 199.767 59.9167 200.769 59.876C202.113 59.8416 203.392 59.2942 204.348 58.3452C206.227 56.3064 207.262 53.6237 207.241 50.8443C207.37 49.4083 206.933 47.9788 206.023 46.8642V46.8642Z" fill="#1D1D1B"/>
<path d="M224.114 46.558C223.598 46.3216 223.036 46.2065 222.469 46.2212C220.535 46.2212 218.221 48.3644 216.774 55.4061L215.404 61.9426H212.663L216.5 43.7719H218.708L218.023 47.4765C219.195 44.7976 220.916 43.3433 223.231 43.3433C224.007 43.3213 224.773 43.5231 225.439 43.925L224.114 46.558Z" fill="#1D1D1B"/>
<path d="M251.631 61.866H249.012L240.332 44.0321C239.845 43.0065 239.418 42.0115 238.809 40.8174C238.657 42.0115 238.398 43.2361 238.2 44.1087L234.439 61.866H231.652L236.982 36.5924H239.723L248.251 53.7375C248.814 54.8856 249.347 56.0643 249.88 57.243C250.108 56.0949 250.291 54.8856 250.565 53.6609L254.22 36.5924H257.007L251.631 61.866Z" fill="#1D1D1B"/>
<path d="M272.722 53.3394C271.656 58.2227 271.58 59.83 271.854 61.4833L269.829 62.0497C269.532 61.0799 269.353 60.0776 269.296 59.0646C268.516 60.0253 267.537 60.8037 266.427 61.3456C265.317 61.8875 264.103 62.18 262.87 62.2028C260.783 62.2028 258.606 61.0547 258.606 57.5032C258.696 56.0455 258.925 54.5998 259.291 53.1863L261.271 43.7719H264.012L261.621 55.0539C261.462 55.732 261.37 56.4242 261.347 57.1205C261.347 58.9881 262.215 59.83 263.89 59.83C266.22 59.83 269.113 57.3807 269.981 53.7068L272.113 43.8025H274.854L272.722 53.3394Z" fill="#1D1D1B"/>
<path d="M287.874 46.558C287.396 46.3391 286.877 46.2244 286.351 46.2212C284.417 46.2212 282.088 48.3643 280.641 55.406L279.27 61.9426H276.545L280.26 43.7719H282.468L281.783 47.4765C282.971 44.7975 284.676 43.3433 287.006 43.3433C287.767 43.33 288.516 43.5315 289.169 43.925L287.874 46.558Z" fill="#1D1D1B"/>
<path d="M300.331 46.6345C299.222 46.0974 298.013 45.8051 296.783 45.7772C294.696 45.7772 293.478 46.5733 293.478 48.0275C293.478 51.4718 299.036 51.7015 299.036 56.6766C299.036 60.274 296.448 62.1416 292.412 62.1416C290.662 62.1975 288.936 61.717 287.463 60.7638L288.681 58.5136C289.721 59.361 291.028 59.8063 292.366 59.7688C294.849 59.7688 296.326 58.7738 296.326 56.9368C296.326 53.5384 290.691 53.2323 290.691 48.1806C290.691 45.5476 292.747 43.282 296.63 43.282C298.058 43.2783 299.476 43.5271 300.818 44.0168L300.331 46.6345Z" fill="#1D1D1B"/>
<path d="M305.006 61.866H302.265L306.148 43.7718H308.889L305.006 61.866ZM308.204 40.0214C307.971 40.0446 307.735 40.016 307.515 39.9377C307.294 39.8594 307.093 39.7333 306.926 39.5683C306.758 39.4033 306.63 39.2034 306.548 38.9828C306.466 38.7622 306.434 38.5262 306.453 38.2916C306.46 37.6946 306.701 37.1245 307.122 36.7038C307.544 36.2831 308.112 36.0452 308.706 36.0413C308.939 36.0215 309.173 36.0517 309.393 36.1299C309.613 36.208 309.813 36.3322 309.982 36.4944C310.15 36.6565 310.283 36.8529 310.37 37.0704C310.457 37.2878 310.497 37.5215 310.488 37.7558C310.48 38.3594 310.236 38.9357 309.808 39.3597C309.381 39.7837 308.804 40.0214 308.204 40.0214V40.0214Z" fill="#1D1D1B"/>
<path d="M325.944 52.1454L323.889 61.866H321.148L323.356 51.38C323.63 50.2257 323.783 49.0456 323.813 47.8591C323.813 46.757 323.356 45.8385 321.863 45.8385C319.884 45.8385 315.863 48.1653 314.554 54.3651L313.031 61.866H310.29L314.143 43.7719H316.351L315.665 47.4764C316.409 46.2655 317.436 45.2558 318.657 44.5354C319.878 43.815 321.256 43.4057 322.67 43.3433C323.207 43.3056 323.746 43.3876 324.247 43.5834C324.749 43.7791 325.202 44.0839 325.573 44.4758C325.944 44.8677 326.224 45.3371 326.393 45.8506C326.563 46.364 326.618 46.9087 326.554 47.4458C326.542 49.0314 326.337 50.6097 325.944 52.1454V52.1454Z" fill="#1D1D1B"/>
<path d="M342.497 62.6161C341.629 66.8258 339.68 70.8519 334.213 70.8519C332.031 70.9336 329.869 70.4036 327.97 69.3211L329.142 66.9483C330.489 67.8853 332.074 68.4164 333.711 68.4791C337.32 68.4791 338.843 66.4891 339.909 62.0803L340.594 59.2177C339.921 60.1402 339.047 60.8957 338.038 61.4263C337.03 61.957 335.914 62.2488 334.777 62.2793C331.655 62.2793 329.569 60.1821 329.569 55.6663C329.569 50.1553 333.102 43.4198 341.096 43.4198C342.877 43.407 344.645 43.7343 346.304 44.3842L342.497 62.6161ZM340.289 45.7772C335.584 45.7772 332.34 50.5993 332.34 55.1458C332.34 58.0849 333.254 59.7382 335.386 59.7382C337.015 59.7382 340.624 58.0543 341.995 51.7168L343.183 46.1599C342.246 45.8725 341.268 45.7432 340.289 45.7772V45.7772Z" fill="#1D1D1B"/>
<path d="M389.263 60.7485V51.9005C389.232 51.3243 389.232 50.7468 389.263 50.1707V50.1707C388.971 50.7534 388.64 51.316 388.273 51.8545L385.228 56.447H383.705L380.385 51.7474C380 51.269 379.658 50.7567 379.365 50.2166V50.2166C379.365 50.8289 379.365 51.38 379.365 51.8545V60.871H376.045V44.5985H379.091L383.309 50.6452C383.73 51.2318 384.122 51.8399 384.481 52.4669V52.4669C384.808 51.8074 385.174 51.1684 385.578 50.5534L389.431 44.5985H392.476V60.7485H389.263Z" fill="#1D1D1B"/>
<path d="M395.552 60.7485V44.5985H404.857L403.989 47.308H398.887V51.0891H404.004V53.8905H398.887V58.0237H404.841V60.7638L395.552 60.7485Z" fill="#1D1D1B"/>
<path d="M412.242 60.7485H407.202V44.5985H412.532C418.257 44.5985 421.486 47.6601 421.486 52.5434C421.486 57.4267 417.8 60.7485 412.242 60.7485ZM412.318 47.3846H410.537V58.0237H412.364C413.092 58.1067 413.828 58.0274 414.522 57.7914C415.216 57.5555 415.849 57.1686 416.377 56.6584C416.905 56.1482 417.314 55.5273 417.576 54.8398C417.838 54.1524 417.946 53.4153 417.892 52.6812C417.892 49.4512 416.004 47.3846 412.318 47.3846Z" fill="#1D1D1B"/>
<path d="M423.77 60.7485V44.5985H427.105V60.7485H423.77Z" fill="#1D1D1B"/>
<path d="M437.612 60.9935C436.523 61.064 435.432 60.9022 434.409 60.5185C433.387 60.1349 432.457 59.5382 431.681 58.7676C430.904 57.997 430.298 57.07 429.903 56.0474C429.508 55.0248 429.333 53.9298 429.389 52.8343C429.389 48.2418 432.846 44.4301 438.343 44.4301C439.785 44.3962 441.217 44.6892 442.531 45.2874V48.349C441.317 47.6132 439.928 47.2217 438.511 47.2162C437.785 47.1641 437.056 47.2692 436.374 47.5245C435.692 47.7797 435.073 48.1791 434.557 48.6957C434.042 49.2123 433.643 49.834 433.387 50.5189C433.131 51.2039 433.025 51.936 433.074 52.6659C433.021 53.3747 433.116 54.0868 433.351 54.757C433.587 55.4272 433.958 56.0409 434.442 56.5591C434.926 57.0773 435.512 57.4887 436.163 57.7672C436.813 58.0456 437.514 58.1851 438.221 58.1768C439.624 58.1656 441 57.7856 442.211 57.0746L443.11 59.432C441.465 60.4729 439.556 61.015 437.612 60.9935V60.9935Z" fill="#1D1D1B"/>
<path d="M456.023 60.7487L454.5 56.7992H449.033L447.511 60.7487H444.221L450.51 44.5221H453.054L459.602 60.7487H456.023ZM452.338 50.9668C452.106 50.3154 451.913 49.6509 451.759 48.9767V48.9767C451.619 49.6394 451.425 50.2896 451.181 50.9209L449.977 54.1049H453.465L452.338 50.9668Z" fill="#1D1D1B"/>
<path d="M461.201 60.7485V44.5985H464.52V58.0237H470.185V60.7945L461.201 60.7485Z" fill="#1D1D1B"/>
<path d="M471.556 55.9418V53.4313H477.967V56.003L471.556 55.9418Z" fill="#1D1D1B"/>
<path d="M485.033 60.9935C483.213 61.0066 481.432 60.4736 479.916 59.4627L481.21 57.0287C482.289 57.8035 483.571 58.2403 484.896 58.2839C486.068 58.2839 487.378 57.84 487.378 56.6154C487.378 54.4875 483.479 54.1201 481.53 51.8852C480.846 51.0928 480.482 50.0715 480.51 49.0225C480.51 46.5733 482.429 44.4301 485.961 44.4301C487.373 44.4052 488.767 44.7424 490.012 45.4098V48.3031C488.855 47.5861 487.533 47.1802 486.175 47.1243C484.987 47.1243 484.058 47.6601 484.058 48.6552C484.058 51.4412 490.956 51.1963 490.956 56.3092C490.911 59.1565 488.322 60.9935 485.033 60.9935Z" fill="#1D1D1B"/>
<path d="M505.271 59.1259C503.753 60.3102 501.895 60.9695 499.974 61.0054C498.053 61.0412 496.172 60.4517 494.611 59.3249C494.06 58.7036 493.641 57.976 493.379 57.1864C493.117 56.3968 493.018 55.5618 493.088 54.7325V44.5985H496.393V54.5181C496.353 55.4826 496.674 56.4271 497.291 57.1664C498.06 57.8184 499.034 58.1759 500.04 58.1759C501.046 58.1759 502.02 57.8184 502.789 57.1664C503.362 56.468 503.645 55.5744 503.58 54.6712V44.5985H506.931V54.4416C506.979 55.2942 506.857 56.148 506.572 56.9525C506.287 57.7569 505.844 58.4959 505.271 59.1259Z" fill="#1D1D1B"/>
<path d="M518.474 60.7485C516.022 56.5541 515.062 54.7478 514.469 54.5181H513.25V60.7485H509.915V44.5985H514.59C518.885 44.5985 520.453 46.7263 520.453 49.1909C520.442 50.1144 520.154 51.013 519.627 51.7694C519.1 52.5259 518.358 53.105 517.499 53.4313V53.4313C518.291 53.8905 519.859 56.6154 522.265 60.7332L518.474 60.7485ZM514.636 47.3846H513.25V52.0689H514.667C514.991 52.0772 515.315 52.0192 515.617 51.8985C515.919 51.7778 516.193 51.5968 516.424 51.3665C516.654 51.1362 516.836 50.8613 516.958 50.5584C517.08 50.2555 517.14 49.9309 517.133 49.6043C517.136 49.2866 517.071 48.972 516.942 48.6819C516.814 48.3917 516.625 48.1326 516.388 47.9222C516.151 47.7118 515.872 47.5549 515.57 47.4621C515.268 47.3694 514.949 47.3429 514.636 47.3846V47.3846Z" fill="#1D1D1B"/>
<path d="M531.326 60.9935C530.245 61.0482 529.165 60.8748 528.154 60.4843C527.144 60.0938 526.227 59.495 525.46 58.7264C524.694 57.9578 524.097 57.0364 523.707 56.0216C523.316 55.0068 523.142 53.9211 523.194 52.8343C523.194 48.1194 526.819 44.4302 532.331 44.4302C533.975 44.4132 535.609 44.6878 537.158 45.2415V48.3031C535.821 47.5731 534.325 47.1841 532.803 47.1703C528.524 47.1703 526.895 49.7727 526.895 52.62C526.846 53.3552 526.95 54.0926 527.198 54.7859C527.446 55.4792 527.834 56.1137 528.337 56.6495C528.84 57.1854 529.447 57.6112 530.122 57.9004C530.796 58.1895 531.522 58.3357 532.255 58.3299C533.064 58.346 533.87 58.2111 534.631 57.9319V52.4822H537.966V59.4015C535.918 60.4785 533.636 61.0257 531.326 60.9935Z" fill="#1D1D1B"/>
<path d="M540.661 60.7485V44.5985H543.996V60.7485H540.661Z" fill="#1D1D1B"/>
<path d="M554.366 60.9935C553.278 61.0642 552.187 60.9024 551.165 60.5186C550.144 60.1349 549.215 59.5379 548.439 58.7671C547.664 57.9962 547.06 57.0689 546.666 56.0463C546.273 55.0237 546.1 53.929 546.158 52.8343C546.158 48.2418 549.615 44.4301 555.097 44.4301C556.54 44.3947 557.971 44.6877 559.285 45.2874V48.349C558.071 47.6132 556.682 47.2217 555.265 47.2162C554.543 47.1607 553.818 47.2606 553.138 47.5093C552.458 47.758 551.838 48.1497 551.321 48.6583C550.803 49.1669 550.4 49.7807 550.137 50.4585C549.875 51.1364 549.759 51.8629 549.798 52.5893C549.745 53.2981 549.839 54.0102 550.075 54.6805C550.31 55.3507 550.682 55.9643 551.166 56.4825C551.65 57.0007 552.236 57.4121 552.886 57.6906C553.537 57.9691 554.238 58.1086 554.945 58.1002C556.348 58.0904 557.724 57.7104 558.935 56.9981L559.848 59.3555C558.214 60.4165 556.312 60.9849 554.366 60.9935V60.9935Z" fill="#1D1D1B"/>
<path d="M572.838 60.7487L571.315 56.7992H565.848L564.325 60.7487H561.036L567.325 44.5221H569.853L576.417 60.7487H572.838ZM569.168 50.9668C568.933 50.3153 568.734 49.6509 568.574 48.9767C568.428 49.6396 568.229 50.2897 567.98 50.9209L566.792 54.1049H570.28L569.168 50.9668Z" fill="#1D1D1B"/>
<path d="M578.031 60.7485V44.5985H581.35V58.0237H587V60.7945L578.031 60.7485Z" fill="#1D1D1B"/>
<path d="M360.923 32H359.401V72H360.923V32Z" fill="#1D1D1B"/>
<path d="M125.207 38.3988C127.265 38.4445 129.273 39.0416 131.025 40.1286L132.045 35.5362C129.903 34.4714 127.535 33.946 125.147 34.0054C119.634 34.0054 115.279 37.1435 115.279 42.4861C115.279 49.8339 124.111 49.2981 124.111 54.013C124.111 56.5695 121.248 57.4267 119.192 57.4267H110.162L108.32 61.8048H119.314C124.994 61.8048 130.263 58.6667 130.263 53.0027C130.263 45.3487 121.233 45.6854 121.233 41.3533C121.233 39.4704 122.908 38.3988 125.207 38.3988Z" fill="#1D1D1B"/>
<path d="M136.72 61.866H131.177L135.456 42.3176H140.999L136.72 61.866ZM141.806 37.5415C141.806 37.2011 141.739 36.8642 141.609 36.5502C141.478 36.2361 141.287 35.9513 141.046 35.712C140.805 35.4728 140.52 35.284 140.206 35.1566C139.892 35.0292 139.556 34.9657 139.217 34.9697C138.811 34.9595 138.407 35.0311 138.028 35.1804C137.65 35.3297 137.305 35.5536 137.014 35.8389C136.723 36.1242 136.492 36.4652 136.335 36.8417C136.177 37.2183 136.095 37.6227 136.096 38.0313C136.09 38.3702 136.151 38.7068 136.276 39.0215C136.401 39.3361 136.588 39.6224 136.825 39.8634C137.062 40.1045 137.344 40.2955 137.656 40.4251C137.967 40.5548 138.302 40.6205 138.639 40.6184C139.05 40.6349 139.461 40.5675 139.845 40.4201C140.23 40.2727 140.581 40.0484 140.877 39.7608C141.173 39.4732 141.408 39.1283 141.568 38.7468C141.727 38.3654 141.809 37.9553 141.806 37.5415Z" fill="#1D1D1B"/>
<path d="M172.323 50.3697L169.826 61.9426H164.192L166.735 50.3697C166.903 49.6515 167 48.9182 167.024 48.1806C167.024 47.3999 166.689 46.6498 165.669 46.6498C164.359 46.6498 160.978 47.9816 159.577 54.7478L158.055 61.8201H152.344L154.933 50.3697C155.103 49.5947 155.199 48.8054 155.222 48.0122C155.234 47.8322 155.207 47.6518 155.142 47.4835C155.078 47.3152 154.978 47.163 154.849 47.0377C154.72 46.9123 154.565 46.8168 154.395 46.7577C154.226 46.6987 154.045 46.6775 153.867 46.6957C152.466 46.6957 149.146 48.0275 147.776 54.6712L146.253 61.866H140.557L144.821 42.3176H149.146L148.979 46.0834C149.816 44.8744 150.91 43.8679 152.182 43.1371C153.455 42.4063 154.873 41.9695 156.334 41.8584C156.915 41.7855 157.504 41.8441 158.06 42.0297C158.615 42.2153 159.122 42.5233 159.544 42.9311C159.966 43.339 160.292 43.8365 160.498 44.3871C160.704 44.9378 160.785 45.5278 160.735 46.114C161.61 44.8814 162.748 43.86 164.065 43.1239C165.382 42.3879 166.845 41.9556 168.349 41.8584C171.151 41.8584 172.917 43.3892 172.917 45.9916C172.902 47.4702 172.703 48.941 172.323 50.3697Z" fill="#1D1D1B"/>
<path d="M104.878 61.8661H101.573L96 45.9916H100.173L103.34 55.9418L108.365 42.2717L112.751 42.3636L104.878 61.8661Z" fill="#1D1D1B"/>
<path d="M1654.98 61.5014H1653.27L1649.33 50.4096C1649 49.5068 1648.62 48.3461 1648.23 47.0563H1648.16C1647.78 48.3138 1647.39 49.4101 1647.03 50.4096L1642.93 61.5014H1641.18L1633.75 39.9305H1636.31L1641.09 54.2788C1641.48 55.4718 1641.83 56.5681 1642.12 57.6322H1642.19C1642.48 56.6004 1642.9 55.5041 1643.32 54.3433L1647.03 44.1867L1645.58 39.9628H1648.07L1652.98 54.1821C1653.4 55.4074 1653.82 56.4714 1654.11 57.5032H1654.17C1654.43 56.4391 1654.72 55.4396 1655.11 54.2788L1659.8 39.9628H1662.28L1654.98 61.5014Z" fill="#726C70"/>
<path d="M1673.79 59.7925C1672.59 61.0177 1670.91 61.7271 1668.91 61.7271C1667 61.7271 1665.32 61.0822 1664.13 59.8247C1662.74 58.3737 1661.99 56.2134 1661.99 53.6662C1661.99 51.119 1662.77 49.0232 1664.13 47.5722C1665.35 46.3147 1667.03 45.5731 1668.94 45.5731C1670.91 45.5731 1672.56 46.2825 1673.82 47.5722C1675.18 48.9909 1675.95 51.119 1675.95 53.6662C1675.95 56.2134 1675.18 58.3737 1673.79 59.7925ZM1668.94 47.6367C1666.03 47.6367 1664.38 49.9905 1664.38 53.634C1664.38 57.2775 1666.1 59.6957 1668.97 59.6957C1671.85 59.6957 1673.56 57.2775 1673.56 53.634C1673.56 49.9582 1671.88 47.6367 1668.94 47.6367Z" fill="#726C70"/>
<path d="M1681.77 61.7271C1679.89 61.7271 1679.09 60.5341 1679.09 58.8896V38.3184H1681.44V57.7934C1681.44 59.2443 1681.8 59.5345 1682.7 59.5345C1682.87 59.5345 1683.12 59.5345 1683.51 59.4378L1683.8 61.1789C1683.12 61.5658 1682.57 61.7271 1681.77 61.7271Z" fill="#726C70"/>
<path d="M1690.04 61.7271C1687.84 61.7271 1686.74 60.4373 1686.74 58.4382V48.0236H1684.26V45.9923H1686.74V42.6067L1689.13 41.8007V45.9923H1693.85L1693.01 48.0236H1689.13V57.7289C1689.13 59.0186 1689.62 59.6312 1690.62 59.6312C1691.72 59.6312 1692.72 59.0186 1693.33 58.535L1694.08 60.2439C1692.95 61.05 1691.46 61.7271 1690.04 61.7271Z" fill="#726C70"/>
<path d="M1697.76 54.0854C1697.76 57.0195 1699.44 59.6312 1702.87 59.6312C1704.16 59.6312 1705.61 59.1153 1706.52 58.5349L1707.23 60.1794C1706.13 61.0822 1704.19 61.727 1702.38 61.727C1697.57 61.727 1695.24 57.7933 1695.24 53.376C1695.24 48.9264 1697.79 45.6053 1701.48 45.6053C1705.45 45.6053 1707.62 48.7652 1707.62 53.5372V54.0854H1697.76V54.0854ZM1701.51 47.6367C1699.25 47.6367 1697.79 49.668 1697.79 52.0863H1705.03C1705.03 49.926 1703.84 47.6367 1701.51 47.6367Z" fill="#726C70"/>
<path d="M1717.89 48.3783C1717.57 48.2493 1717.08 48.1203 1716.44 48.1203C1715.53 48.1203 1714.05 48.8942 1713.04 49.9904V61.4046H1710.69V45.9923H1712.62L1712.95 47.7657C1715.05 45.8311 1716.24 45.6053 1717.34 45.6053C1718.02 45.6053 1718.6 45.8633 1718.89 46.0568L1717.89 48.3783Z" fill="#726C70"/>
<path d="M1723.87 61.727C1721.67 61.727 1720.31 61.1467 1719.31 60.5663L1720.22 58.7284C1720.93 59.1798 1722.25 59.8247 1723.97 59.8247C1725.84 59.8247 1727.23 58.9863 1727.23 57.5354C1727.23 53.7629 1720.25 55.0849 1720.25 49.668C1720.25 47.4432 1721.83 45.6053 1725.35 45.6053C1726.97 45.6053 1728.2 45.96 1729.23 46.4114V48.5073C1728.17 48.0558 1727.07 47.6044 1725.45 47.6044C1723.9 47.6044 1722.58 48.1526 1722.58 49.5713C1722.58 53.0213 1729.68 52.1508 1729.68 57.1807C1729.68 60.4051 1727 61.727 1723.87 61.727Z" fill="#726C70"/>
<path d="M1750.88 61.4046L1742.32 51.6994H1742.29V61.4046H1739.93V39.9305H1742.29V49.797H1742.32L1750.3 39.995H1753.24L1744.45 50.5386L1754.01 61.4046H1750.88Z" fill="#726C70"/>
<path d="M1758.89 61.7271C1757.02 61.7271 1756.21 60.5341 1756.21 58.8896V38.3184H1758.57V57.7934C1758.57 59.2443 1758.93 59.5345 1759.83 59.5345C1759.99 59.5345 1760.25 59.5345 1760.64 59.4378L1760.93 61.1789C1760.22 61.5658 1759.67 61.7271 1758.89 61.7271Z" fill="#726C70"/>
<path d="M1773.17 61.4047L1772.56 59.7925C1771.43 60.7598 1769.65 61.7271 1767.59 61.7271C1765.52 61.7271 1762.9 60.6631 1762.9 56.3102V45.9923H1765.26V56.0845C1765.26 58.664 1766.32 59.6635 1768.26 59.6635C1770.2 59.6635 1771.72 58.4383 1772.37 57.5999V45.9601H1774.73V54.956C1774.73 59.8247 1774.82 60.7598 1775.05 61.4047H1773.17Z" fill="#726C70"/>
<path d="M1794.24 61.5014H1792.08L1788.26 49.0554H1788.17L1784.35 61.5014H1782.29L1777.15 45.9923H1779.54L1783.32 58.2448H1783.42L1787.23 45.9923H1789.36L1793.21 58.277H1793.3L1796.99 45.9923H1799.31L1794.24 61.5014Z" fill="#726C70"/>
<path d="M1802.84 54.0854C1802.84 57.0195 1804.52 59.6312 1807.94 59.6312C1809.23 59.6312 1810.66 59.1153 1811.59 58.5349L1812.3 60.1794C1811.2 61.0822 1809.27 61.727 1807.46 61.727C1802.64 61.727 1800.32 57.7933 1800.32 53.376C1800.32 48.9264 1802.84 45.6053 1806.55 45.6053C1810.53 45.6053 1812.69 48.7652 1812.69 53.5372V54.0854H1802.84V54.0854ZM1806.58 47.6367C1804.32 47.6367 1802.87 49.668 1802.87 52.0863H1810.11C1810.14 49.926 1808.91 47.6367 1806.58 47.6367Z" fill="#726C70"/>
<path d="M1823 48.3783C1822.68 48.2493 1822.19 48.1203 1821.54 48.1203C1820.64 48.1203 1819.15 48.8942 1818.15 49.9904V61.4046H1815.79V45.9923H1817.73L1818.05 47.7657C1820.16 45.8311 1821.35 45.6053 1822.45 45.6053C1823.13 45.6053 1823.71 45.8633 1824 46.0568L1823 48.3783Z" fill="#726C70"/>
<path d="M1600.18 34.5781V29.5481C1596.76 30.3864 1593.69 32.1598 1591.26 34.5781H1600.18Z" fill="#58A0D8"/>
<path d="M1609.07 34.5781V29.5481C1612.49 30.3864 1615.56 32.1598 1617.99 34.5781H1609.07Z" fill="#1475BC"/>
<path d="M1604.64 29C1603.09 29 1601.6 29.1935 1600.18 29.5159V34.5459H1609.1V29.5159C1607.65 29.1935 1606.19 29 1604.64 29Z" fill="#C2D4EF"/>
<path d="M1609.07 61.3723V66.4023C1612.49 65.564 1615.56 63.7906 1617.99 61.3723H1609.07Z" fill="#1475BC"/>
<path d="M1600.18 61.3723V66.4023C1596.76 65.564 1593.69 63.7906 1591.26 61.3723H1600.18Z" fill="#1475BC"/>
<path d="M1604.61 66.9504C1606.16 66.9504 1607.65 66.7892 1609.07 66.4345V61.4045H1600.18V66.4345C1601.6 66.7569 1603.09 66.9504 1604.61 66.9504Z" fill="#58A0D8"/>
<path d="M1617.99 43.5095H1622.99C1622.15 40.0595 1620.38 36.9964 1617.99 34.5781V43.5095Z" fill="#1475BC"/>
<path d="M1617.99 52.4409H1622.99C1622.15 55.891 1620.38 58.9541 1617.99 61.3723V52.4409Z" fill="#1475BC"/>
<path d="M1623.54 47.9913C1623.54 46.4437 1623.35 44.9282 1623.03 43.5095H1618.02V52.4409H1623.03C1623.35 51.0222 1623.54 49.539 1623.54 47.9913Z" fill="#58A0D8"/>
<path d="M1591.26 52.4409H1586.22C1587.06 55.891 1588.84 58.9541 1591.23 61.3723V52.4409H1591.26Z" fill="#1475BC"/>
<path d="M1591.26 43.5095H1586.22C1587.06 40.0595 1588.84 36.9964 1591.23 34.5781V43.5095H1591.26Z" fill="#58A0D8"/>
<path d="M1585.71 47.9591C1585.71 49.5068 1585.9 51.0222 1586.22 52.4409H1591.26V43.5095H1586.22C1585.9 44.9282 1585.71 46.4114 1585.71 47.9591Z" fill="#C2D4EF"/>
<path d="M1600.18 34.5781H1591.26V43.5095H1600.18V34.5781Z" fill="#AACA73"/>
<path d="M1600.18 43.5095H1591.26V52.4409H1600.18V43.5095Z" fill="#DCE8C7"/>
<path d="M1600.18 52.4409H1591.26V61.3723H1600.18V52.4409Z" fill="#7AB53D"/>
<path d="M1609.1 34.5781H1600.18V43.5095H1609.1V34.5781Z" fill="#DCE8C7"/>
<path d="M1609.1 43.5095H1600.18V52.4409H1609.1V43.5095Z" fill="#DB0453"/>
<path d="M1609.1 52.4409H1600.18V61.3723H1609.1V52.4409Z" fill="#AACA73"/>
<path d="M1617.99 34.5781H1609.07V43.5095H1617.99V34.5781Z" fill="#7AB53D"/>
<path d="M1617.99 43.5095H1609.07V52.4409H1617.99V43.5095Z" fill="#AACA73"/>
<path d="M1617.99 52.4409H1609.07V61.3723H1617.99V52.4409Z" fill="#7AB53D"/>
<path d="M1621.51 59.5667C1621.51 58.406 1622.31 57.5354 1623.51 57.5354C1624.64 57.5354 1625.51 58.406 1625.51 59.5667C1625.51 60.7275 1624.64 61.5981 1623.51 61.5981C1622.31 61.5981 1621.51 60.7275 1621.51 59.5667ZM1625.03 59.5667C1625.03 58.6639 1624.42 57.9546 1623.51 57.9546C1622.61 57.9546 1621.99 58.6639 1621.99 59.5667C1621.99 60.4695 1622.64 61.1789 1623.51 61.1789C1624.38 61.1789 1625.03 60.4695 1625.03 59.5667ZM1622.77 58.4382H1623.45C1623.58 58.4382 1623.7 58.4382 1623.8 58.5027C1624.09 58.5994 1624.22 58.7929 1624.22 59.0508C1624.22 59.4055 1623.96 59.599 1623.7 59.6312C1623.87 59.6957 1624.09 60.1471 1624.35 60.6308H1623.83C1623.54 60.1149 1623.38 59.7602 1623.28 59.7602H1623.22V60.6308H1622.77V58.4382V58.4382ZM1623.35 59.4055C1623.58 59.4055 1623.77 59.3088 1623.77 59.0831C1623.77 58.9541 1623.7 58.8574 1623.61 58.8251C1623.54 58.7929 1623.48 58.7929 1623.38 58.7929H1623.25V59.4055H1623.35V59.4055Z" fill="#726C70"/>
<path d="M1531.45 62.5247H1448.32V64.1158H1531.45V62.5247Z" fill="#E42313"/>
<path d="M1451.42 55.8591H1461.1V58.5977H1448.34V37.3875H1451.43L1451.42 55.8591ZM1469.46 57.4452C1468.39 58.3409 1467.05 58.847 1465.65 58.8782C1465.2 58.8844 1464.74 58.8001 1464.32 58.6303C1463.9 58.4605 1463.51 58.2087 1463.19 57.8897C1462.87 57.5707 1462.62 57.191 1462.44 56.773C1462.27 56.3551 1462.19 55.9073 1462.19 55.4562C1462.19 52.687 1464.74 51.8455 1467 51.0397L1469.49 50.1677V49.4231C1469.49 47.679 1468.64 46.965 1466.94 46.965C1465.39 46.965 1463.85 47.679 1462.48 49.265V46.251C1463.58 44.976 1465.12 44.3538 1467.16 44.3538C1470.02 44.3538 1472.28 45.7818 1472.28 48.9437V56.1294C1472.28 56.6394 1472.48 56.8434 1472.8 56.8434C1473.35 56.7196 1473.85 56.4638 1474.27 56.0988V57.7767C1472.99 58.6181 1472.45 58.868 1471.57 58.868C1470.37 58.8782 1469.71 58.4396 1469.46 57.4452H1469.46ZM1467.03 56.9352C1467.97 56.8832 1468.85 56.4715 1469.49 55.7877V51.7078C1467.1 52.5136 1465.02 53.3245 1465.02 54.9717C1465.02 55.2311 1465.06 55.4888 1465.16 55.7292C1465.26 55.9696 1465.41 56.1875 1465.6 56.3695C1465.78 56.5514 1466.01 56.6937 1466.25 56.7875C1466.49 56.8813 1466.76 56.9246 1467.02 56.9148L1467.03 56.9352ZM1481.63 58.8986C1477.23 58.8986 1474.78 55.3287 1474.78 51.463C1474.78 47.2353 1477.48 44.3743 1481.38 44.3743C1485.12 44.3743 1487.5 46.8936 1487.5 52.0546H1477.58C1478.02 54.8238 1479.64 56.2518 1482.32 56.2518C1484.1 56.1879 1485.82 55.604 1487.26 54.574V57.2463C1485.62 58.3849 1483.64 58.9582 1481.63 58.8782L1481.63 58.8986ZM1477.64 50.2289H1484.75C1484.65 48.1175 1483.43 46.7763 1481.45 46.7763C1479.31 46.7457 1478.02 47.99 1477.64 50.1983L1477.64 50.2289ZM1500.27 46.0011C1499.11 44.9097 1498.04 44.3844 1496.91 44.3844C1495.59 44.3844 1494.24 45.4044 1492.82 47.8676H1492.79V44.6649H1489.99V58.6283H1492.79V51.2896C1492.79 48.8927 1494.29 46.9956 1496.21 46.9956C1496.87 46.9956 1497.97 47.5565 1498.82 48.3623L1500.27 46.0011ZM1499.89 51.3202C1499.89 47.2761 1502.82 44.3844 1506.93 44.3844C1507.95 44.3894 1508.95 44.5796 1509.89 44.9454V37.3875H1512.69V58.5977H1506.75C1502.54 58.5977 1499.9 55.7673 1499.9 51.2896L1499.89 51.3202ZM1502.75 51.7231C1502.75 54.3342 1503.82 56.313 1507.06 56.313H1509.89V47.3679C1509.06 47.021 1508.18 46.8474 1507.28 46.8579C1504.58 46.8222 1502.76 48.7703 1502.76 51.6925L1502.75 51.7231ZM1518.56 58.8782C1518.1 58.8851 1517.65 58.8013 1517.23 58.6317C1516.8 58.4622 1516.42 58.2104 1516.1 57.8913C1515.77 57.5721 1515.52 57.1921 1515.35 56.7739C1515.18 56.3556 1515.09 55.9075 1515.1 55.4562C1515.1 52.687 1517.64 51.8455 1519.91 51.0397L1522.39 50.1677V49.4231C1522.39 47.679 1521.54 46.965 1519.85 46.965C1518.3 46.965 1516.75 47.679 1515.38 49.265V46.251C1516.48 44.976 1518.02 44.3538 1520.07 44.3538C1522.93 44.3538 1525.19 45.7818 1525.19 48.9437V56.1294C1525.19 56.6394 1525.38 56.8434 1525.71 56.8434C1526.25 56.721 1526.76 56.4651 1527.18 56.0988V57.7767C1525.9 58.6181 1525.36 58.868 1524.48 58.868C1523.26 58.868 1522.6 58.4294 1522.35 57.435C1521.29 58.3311 1519.95 58.8406 1518.56 58.8782ZM1519.94 56.9148C1520.88 56.8628 1521.76 56.4511 1522.39 55.7673V51.6874C1520 52.4932 1517.93 53.3041 1517.93 54.9513C1517.92 55.2151 1517.97 55.4778 1518.07 55.7227C1518.16 55.9677 1518.31 56.1895 1518.5 56.3742C1518.69 56.5588 1518.92 56.7023 1519.17 56.7953C1519.42 56.8884 1519.69 56.9291 1519.95 56.9148H1519.94ZM1531.44 37.3875H1528.65V58.5977H1531.44V37.3875ZM1470.68 70.0979C1470.43 70.104 1470.18 70.1659 1469.96 70.2789C1469.74 70.3918 1469.54 70.5531 1469.39 70.7507V70.7507V67.9611H1468.51V74.4736H1469.37V71.4136C1469.49 71.2354 1469.65 71.0867 1469.84 70.9789C1470.02 70.8711 1470.23 70.807 1470.45 70.7915C1470.97 70.7915 1471.3 71.2046 1471.3 71.8114V74.4634H1472.17V71.8369C1472.17 70.6742 1471.53 70.0979 1470.68 70.0979ZM1476.81 72.4591H1473.72C1473.72 72.6396 1473.77 72.8168 1473.85 72.9803C1473.92 73.1437 1474.03 73.2899 1474.17 73.4103C1474.31 73.5307 1474.47 73.6228 1474.64 73.681C1474.81 73.7393 1474.99 73.7625 1475.18 73.7494C1475.72 73.7317 1476.25 73.5542 1476.69 73.2394V74.0605C1476.19 74.4149 1475.58 74.5942 1474.96 74.5705C1473.61 74.5705 1472.86 73.474 1472.86 72.2908C1472.86 70.9904 1473.69 70.1081 1474.88 70.1081C1476.08 70.1081 1476.81 70.8731 1476.81 72.4591ZM1475.96 71.8981C1475.97 71.7595 1475.95 71.6202 1475.9 71.4893C1475.86 71.3584 1475.78 71.2389 1475.68 71.1387C1475.59 71.0385 1475.47 70.9598 1475.34 70.9079C1475.21 70.8559 1475.07 70.8319 1474.93 70.8374C1474.63 70.8263 1474.34 70.9314 1474.12 71.13C1473.9 71.3286 1473.77 71.6046 1473.76 71.8981H1475.96ZM1477.75 74.4736H1478.61V67.9611H1477.75V74.4736ZM1483.72 72.3622C1483.74 72.6527 1483.69 72.9429 1483.58 73.2144C1483.48 73.4859 1483.32 73.7328 1483.11 73.9394C1482.9 74.146 1482.65 74.3079 1482.38 74.4147C1482.11 74.5216 1481.81 74.5712 1481.52 74.5603C1481.22 74.5563 1480.92 74.4921 1480.65 74.3716V76.6767H1479.79V70.1846H1481.28C1482.84 70.1846 1483.7 70.9496 1483.7 72.3622H1483.72ZM1482.85 72.3622C1482.87 72.1726 1482.85 71.9801 1482.79 71.7992C1482.72 71.6183 1482.62 71.4538 1482.49 71.3182C1482.35 71.1826 1482.18 71.0794 1482 71.0164C1481.82 70.9534 1481.62 70.9323 1481.43 70.9547H1480.65V73.6117C1480.9 73.733 1481.18 73.7974 1481.46 73.8004C1481.65 73.7986 1481.83 73.7594 1482.01 73.685C1482.18 73.6106 1482.33 73.5026 1482.46 73.3676C1482.58 73.2326 1482.68 73.0734 1482.75 72.8997C1482.81 72.726 1482.84 72.5414 1482.82 72.3571L1482.85 72.3622ZM1484.87 68.3843C1484.76 68.3843 1484.66 68.4142 1484.58 68.4703C1484.49 68.5263 1484.43 68.606 1484.39 68.6992C1484.35 68.7923 1484.34 68.8949 1484.36 68.9938C1484.38 69.0927 1484.43 69.1836 1484.5 69.2549C1484.57 69.3263 1484.67 69.3748 1484.76 69.3945C1484.86 69.4142 1484.97 69.4041 1485.06 69.3655C1485.16 69.3269 1485.24 69.2615 1485.29 69.1777C1485.35 69.0938 1485.38 68.9952 1485.38 68.8943C1485.38 68.8252 1485.37 68.7566 1485.34 68.6927C1485.31 68.6289 1485.27 68.5711 1485.22 68.523C1485.17 68.4748 1485.11 68.4372 1485.05 68.4125C1484.98 68.3878 1484.91 68.3765 1484.84 68.3792L1484.87 68.3843ZM1484.43 74.5042H1485.29V70.2152H1484.43V74.5042ZM1488.68 70.1285C1488.43 70.1335 1488.18 70.1949 1487.96 70.3079C1487.73 70.421 1487.54 70.5828 1487.39 70.7813V70.7813V70.2152H1486.53V74.5042H1487.39V71.4442C1487.51 71.2657 1487.67 71.1169 1487.85 71.009C1488.04 70.9012 1488.25 70.8372 1488.47 70.8221C1488.98 70.8221 1489.32 71.2352 1489.32 71.842V74.494H1490.17V71.8114C1490.13 70.6538 1489.48 70.0979 1488.66 70.0979L1488.68 70.1285ZM1493.02 70.2152H1494.81V70.8731H1493.92C1494.06 70.9864 1494.18 71.1295 1494.25 71.2917C1494.33 71.454 1494.37 71.6315 1494.37 71.8114C1494.36 72.17 1494.21 72.5112 1493.97 72.7753C1493.39 73.3873 1492.21 73.0813 1492.21 73.5913C1492.21 73.8259 1492.66 73.9738 1493.53 74.1421C1494.41 74.3104 1494.79 74.7949 1494.79 75.3405C1494.79 76.1871 1494.03 76.7073 1492.73 76.7073C1491.57 76.7073 1490.73 76.1616 1490.73 75.4068C1490.73 74.7744 1491.07 74.3869 1491.82 74.2186C1491.52 74.0401 1491.39 73.8667 1491.39 73.6729C1491.39 73.3975 1491.66 73.1629 1492.08 73.066C1491.79 72.9556 1491.53 72.7664 1491.35 72.5203C1491.19 72.2837 1491.11 72.0039 1491.12 71.7196C1491.11 70.7507 1491.83 70.1846 1493 70.1846L1493.02 70.2152ZM1491.56 75.366C1491.56 75.7944 1491.98 76.029 1492.76 76.029C1493.54 76.029 1493.96 75.7944 1493.96 75.4068C1493.96 74.8611 1493.07 74.7184 1492.54 74.7184C1492.01 74.7184 1491.53 74.9529 1491.53 75.3354L1491.56 75.366ZM1492.76 70.9496C1492.54 70.9412 1492.33 71.0178 1492.17 71.1628C1492.01 71.3078 1491.91 71.5096 1491.9 71.7247C1491.9 71.9479 1491.99 72.1619 1492.15 72.3198C1492.31 72.4776 1492.53 72.5662 1492.75 72.5662C1492.98 72.5662 1493.19 72.4776 1493.35 72.3198C1493.51 72.1619 1493.6 71.9479 1493.6 71.7247C1493.6 71.6152 1493.58 71.5068 1493.53 71.4063C1493.49 71.3057 1493.43 71.2151 1493.35 71.1398C1493.26 71.0645 1493.17 71.0061 1493.07 70.9681C1492.96 70.9302 1492.85 70.9134 1492.74 70.919L1492.76 70.9496ZM1499.9 72.1276C1499.14 71.689 1498.87 71.4595 1498.87 71.2657C1498.87 71.072 1499.1 70.8731 1499.45 70.8731C1499.9 70.9051 1500.33 71.0624 1500.7 71.3269V70.4855C1500.31 70.2631 1499.87 70.1403 1499.43 70.1285C1498.55 70.1285 1498 70.5671 1498 71.2963C1498 72.454 1500.02 72.7651 1500.02 73.3618C1500.02 73.6678 1499.73 73.8259 1499.38 73.8463C1498.87 73.7947 1498.38 73.6003 1497.97 73.2853V74.2033C1498.43 74.4605 1498.94 74.5941 1499.47 74.5909C1499.65 74.6085 1499.83 74.5892 1500 74.5343C1500.17 74.4793 1500.33 74.3898 1500.47 74.2715C1500.6 74.1531 1500.71 74.0085 1500.79 73.8467C1500.86 73.6848 1500.9 73.5093 1500.9 73.3312C1500.86 72.862 1500.6 72.5662 1499.88 72.097L1499.9 72.1276ZM1504.78 73.9738C1504.95 73.9358 1505.11 73.857 1505.24 73.7443V74.2543C1505.01 74.4532 1504.71 74.5698 1504.4 74.5858C1504.03 74.5858 1503.83 74.4532 1503.75 74.1472C1503.42 74.4222 1503.01 74.5772 1502.58 74.5858C1502.44 74.59 1502.3 74.5657 1502.17 74.5144C1502.04 74.4631 1501.92 74.3859 1501.82 74.2875C1501.72 74.1891 1501.64 74.0716 1501.59 73.9422C1501.54 73.8128 1501.51 73.6743 1501.52 73.5352C1501.52 72.6886 1502.3 72.4285 1503 72.1786L1503.76 71.9134V71.6839C1503.76 71.1485 1503.5 70.9292 1502.98 70.9292C1502.71 70.9384 1502.45 71.0063 1502.21 71.128C1501.97 71.2498 1501.77 71.4223 1501.61 71.6329V70.7099C1501.78 70.5101 1502.01 70.3534 1502.26 70.2517C1502.51 70.1501 1502.77 70.1062 1503.04 70.1234C1503.92 70.1234 1504.62 70.562 1504.62 71.5411V73.7443C1504.6 73.882 1504.64 73.9432 1504.76 73.9432L1504.78 73.9738ZM1503.75 72.3877C1503.01 72.6325 1502.38 72.8977 1502.38 73.4077C1502.38 73.4884 1502.39 73.5688 1502.42 73.6438C1502.45 73.7188 1502.5 73.7868 1502.55 73.8435C1502.61 73.9001 1502.68 73.9441 1502.76 73.9726C1502.83 74.0012 1502.92 74.0138 1503 74.0095C1503.28 73.9934 1503.55 73.8672 1503.75 73.6576V72.3877ZM1506.96 72.8518L1505.79 70.2152H1504.85L1506.81 74.5909H1507.1L1509.01 70.2152H1508.09L1506.96 72.8518ZM1513.07 72.4897H1510.02C1510.03 72.67 1510.07 72.8469 1510.15 73.01C1510.23 73.173 1510.34 73.319 1510.48 73.4393C1510.61 73.5595 1510.77 73.6516 1510.94 73.7101C1511.12 73.7687 1511.3 73.7924 1511.48 73.78C1512.03 73.763 1512.56 73.5854 1513 73.27V74.0911C1512.5 74.4448 1511.89 74.624 1511.27 74.6011C1509.92 74.6011 1509.17 73.5046 1509.17 72.3214C1509.17 71.021 1510 70.1387 1511.19 70.1387C1512.39 70.1387 1513.06 70.8731 1513.06 72.4591L1513.07 72.4897ZM1512.23 71.9287C1512.24 71.7901 1512.22 71.6508 1512.17 71.5199C1512.13 71.389 1512.05 71.2695 1511.95 71.1693C1511.86 71.0691 1511.74 70.9904 1511.61 70.9384C1511.48 70.8865 1511.34 70.8625 1511.2 70.868C1510.9 70.8569 1510.61 70.962 1510.39 71.1606C1510.17 71.3592 1510.04 71.6352 1510.03 71.9287H1512.23ZM1516.4 74.5042H1517.25V67.9611H1516.4V74.5042ZM1518.51 74.5042H1519.37V70.2152H1518.51V74.5042ZM1518.94 68.3843C1518.84 68.3843 1518.74 68.4142 1518.66 68.4703C1518.57 68.5263 1518.51 68.606 1518.47 68.6992C1518.43 68.7923 1518.42 68.8949 1518.44 68.9938C1518.46 69.0927 1518.51 69.1836 1518.58 69.2549C1518.65 69.3263 1518.74 69.3748 1518.84 69.3945C1518.94 69.4142 1519.05 69.4041 1519.14 69.3655C1519.24 69.3269 1519.32 69.2615 1519.37 69.1777C1519.43 69.0938 1519.46 68.9952 1519.46 68.8943C1519.46 68.8261 1519.45 68.7583 1519.42 68.6952C1519.39 68.6321 1519.36 68.5748 1519.31 68.5267C1519.26 68.4787 1519.2 68.4409 1519.13 68.4156C1519.07 68.3902 1519 68.3779 1518.93 68.3792L1518.94 68.3843ZM1523.27 70.1897L1522.12 72.8314L1520.95 70.1948H1520.02L1521.97 74.5705H1522.27L1524.18 70.1948L1523.27 70.1897ZM1528.02 72.4642H1524.97C1524.98 72.6447 1525.02 72.8219 1525.1 72.9854C1525.18 73.1488 1525.29 73.295 1525.42 73.4154C1525.56 73.5358 1525.72 73.6279 1525.89 73.6861C1526.06 73.7444 1526.25 73.7676 1526.43 73.7545C1526.97 73.7368 1527.5 73.5593 1527.94 73.2445V74.0656C1527.44 74.4193 1526.83 74.5986 1526.22 74.5756C1524.86 74.5756 1524.11 73.4791 1524.11 72.2959C1524.11 70.9955 1524.94 70.1132 1526.14 70.1132C1527.34 70.1132 1528.01 70.8731 1528.01 72.4591L1528.02 72.4642ZM1527.17 71.9032C1527.18 71.7646 1527.16 71.6253 1527.11 71.4944C1527.07 71.3635 1526.99 71.244 1526.89 71.1438C1526.8 71.0435 1526.68 70.9649 1526.55 70.913C1526.42 70.861 1526.28 70.837 1526.14 70.8425C1525.84 70.8314 1525.55 70.9367 1525.34 71.1354C1525.12 71.3341 1524.99 71.6101 1524.97 71.9032H1527.17ZM1530.5 72.1021C1529.74 71.6635 1529.47 71.4341 1529.47 71.2403C1529.47 71.0465 1529.69 70.8476 1530.04 70.8476C1530.49 70.8812 1530.93 71.0384 1531.29 71.3015V70.46C1530.9 70.2382 1530.47 70.1155 1530.02 70.103C1529.15 70.103 1528.59 70.5416 1528.59 71.2709C1528.59 72.4285 1530.62 72.7396 1530.62 73.3363C1530.62 73.6423 1530.33 73.8004 1529.98 73.8208C1529.46 73.7692 1528.97 73.5748 1528.56 73.2598V74.1778C1529.02 74.435 1529.54 74.5686 1530.07 74.5654C1530.24 74.583 1530.43 74.5637 1530.6 74.5087C1530.77 74.4537 1530.93 74.3642 1531.06 74.2458C1531.19 74.1273 1531.3 73.9826 1531.38 73.8208C1531.45 73.659 1531.49 73.4836 1531.49 73.3057C1531.44 72.862 1531.2 72.5662 1530.49 72.097L1530.5 72.1021Z" fill="#1D1D1B"/>
<path d="M1414.84 22.4449C1410.23 22.4439 1405.72 23.7963 1401.89 26.3311C1398.05 28.8659 1395.06 32.4691 1393.3 36.6851C1391.53 40.9012 1391.07 45.5405 1391.97 50.0165C1392.87 54.4924 1395.09 58.6039 1398.35 61.8308C1401.61 65.0578 1405.77 67.2553 1410.29 68.1453C1414.81 69.0354 1419.5 68.5781 1423.76 66.8312C1428.02 65.0843 1431.67 62.1263 1434.23 58.3314C1436.79 54.5365 1438.16 50.0751 1438.16 45.5116C1438.16 39.3939 1435.7 33.5268 1431.33 29.201C1426.96 24.8752 1421.03 22.4449 1414.84 22.4449Z" fill="#E42313"/>
<path d="M1424.16 28.6363C1430.34 28.0652 1430.86 31.984 1431 33.7944C1431.05 34.6512 1430.54 36.8701 1429.41 37.3188C1428.9 37.4463 1426.1 36.9018 1425.18 36.7131C1424.25 36.5244 1424.21 35.3475 1424.16 34.8222C1424.08 34.0539 1424.01 33.2896 1423.86 32.5324C1423.7 31.798 1422.74 31.9905 1422.06 31.812C1419.75 30.9756 1420.64 28.8913 1424.16 28.6363ZM1424.42 57.8634C1423.25 57.3534 1422.24 56.0344 1422.02 54.0964C1420.32 55.8179 1418.92 58.3527 1418.76 60.7598C1420.03 63.1414 1424.61 63.4919 1426.71 63.0176C1428.44 62.6351 1429.29 60.8846 1430.11 58.6304C1428.23 58.8741 1426.17 58.5551 1424.42 57.8634ZM1422.71 48.1857C1422.53 47.7873 1422.19 47.3184 1421.81 47.0844C1420.36 45.8349 1419.02 46.4162 1418.46 47.5433C1420.07 49.8841 1422.15 53.1786 1422.15 53.1786C1422.56 53.0318 1422.8 52.3222 1422.91 51.9488C1422.82 50.7554 1422.88 49.5117 1422.71 48.1857ZM1418.76 59.8419C1419.28 55.1654 1421.71 53.9109 1422.02 53.5641C1420.94 51.65 1419.58 49.4443 1418.22 47.7085C1416.68 45.7297 1414.45 46.1763 1413.6 48.8282C1412.57 51.9187 1411.72 55.076 1410.62 57.8962C1410.91 58.2991 1411.34 58.9292 1411.61 59.3423C1412.39 58.4549 1415.87 57.3153 1415.57 54.9592C1415.47 54.1177 1415.29 53.5438 1415.2 52.6309C1415.23 52.5697 1415.2 52.2792 1415.2 52.2588C1415.88 55.2626 1416.72 57.8672 1418.49 60.3559L1418.76 59.8419ZM1416.3 32.1974C1415.55 32.4065 1414.01 33.5719 1413.74 34.7857C1413.55 35.3879 1413.55 35.9863 1413.47 36.6123C1413.29 36.8049 1414.41 36.6582 1415.34 36.6123C1415.53 35.1843 1416.54 33.9196 1417.69 33.5626C1418.84 33.2056 1418.83 31.6722 1416.65 32.1974H1416.3ZM1417.41 41.3939C1417.16 41.4153 1417.05 41.3627 1416.81 41.2838C1416.58 41.2049 1416.19 41.0463 1416 40.8799C1415.73 41.0686 1413.79 42.5504 1413.79 42.5504L1416.65 42.982C1416.65 42.982 1417.52 41.7733 1417.69 41.5744L1417.41 41.3939ZM1416.3 31.812C1416.41 32.0034 1416.2 30.5821 1416.2 30.5821H1414.53L1413.96 33.5626C1414.49 32.8349 1415.45 32.1137 1416.3 31.812ZM1416.2 40.5679C1416.1 40.012 1415.82 39.2516 1415.65 38.7139L1413.18 39.9805C1413.18 39.9805 1413.11 41.4113 1413.47 41.8855C1413.95 41.5999 1415.76 40.8382 1416.2 40.5679ZM1415.09 36.8966C1414.58 36.9782 1413.76 37.1577 1413.18 37.2087C1413.11 37.5861 1413.08 38.7352 1413.03 39.4849L1415.5 38.3468C1415.5 38.3468 1415.28 36.7118 1415.09 36.8966ZM1408.51 56.0529C1408.51 56.0529 1409.82 57.1425 1410.44 57.7493C1410.83 56.6427 1412.38 51.8991 1413.03 50.0581C1413.69 48.217 1413.71 46.2663 1411.05 46.149C1409.76 45.9858 1406.38 46.8273 1403.88 47.9136C1403.43 48.1329 1403.15 50.952 1403.29 51.5334C1403.81 51.9312 1405.26 53.1335 1405.96 53.7455C1407.83 53.312 1408.27 51.1196 1409.31 50.6708C1409.37 50.7641 1409.25 50.6638 1409.26 50.7722C1408.12 52.1288 1407.48 53.8748 1408.24 55.6751L1408.51 56.0529ZM1403.47 52.337C1401.92 52.694 1399.54 56.1541 1398.74 56.608C1400.56 57.7708 1403.27 59.4758 1405.2 60.1846L1405.15 60.3682C1402.38 59.2974 1400.18 58.1302 1397.78 56.3878C1397.36 55.9611 1396.25 55.3877 1395.65 55.3335C1394.28 55.7466 1395.14 57.8264 1395.04 58.8821C1394.96 59.647 1394.99 60.5028 1395.13 61.2599C1395.32 61.8413 1395.45 62.8247 1396.56 62.8247C1397.67 62.8247 1399.24 63.097 1399.24 62.7722C1399.24 61.0944 1398.15 61.3663 1398.13 60.6829L1398.07 59.1968C1398.07 59.0591 1397.93 59.0744 1398.13 59.0744C1399.05 59.5028 1403.34 63.276 1407.94 63.6687C1410.64 63.9135 1412.5 61.4231 1411.22 59.3423C1410.1 57.4962 1405.05 52.4643 1403.63 52.4643L1403.47 52.337ZM1437.91 61.3472C1437.29 61.0412 1436.03 61.0341 1435.41 60.9066C1434.79 60.7791 1434.83 60.0592 1434.83 59.6767C1434.83 59.0036 1436.04 53.429 1435 50.7005C1435.2 48.5127 1435.48 47.2216 1435.17 43.9271C1435.1 43.2246 1434.99 42.4679 1434.61 41.8712C1434.23 41.2745 1433.76 40.6158 1433.15 40.2558C1432.12 39.7459 1430.25 39.3666 1429.61 39.081C1429.22 38.4028 1429.16 38.1011 1428.79 37.5758C1428.18 37.5758 1426.06 37.1251 1425.28 37.0435C1424.91 37.0144 1424.78 36.9654 1424.51 36.7131C1424.24 36.4608 1424.05 36.2694 1424 35.9054C1423.98 34.8559 1423.67 33.5503 1423.41 32.5324C1423.28 32.206 1422.26 31.917 1421.95 32.1974C1421.93 33.1445 1421.65 33.9992 1421.17 34.8222C1420.75 35.5566 1421.48 35.7402 1421.62 36.0155C1421.84 36.7397 1421.45 38.0969 1422.38 38.3468C1423.06 38.4703 1423.82 38.4026 1424.51 38.3468C1424.7 38.7705 1424.53 38.9294 1424.51 39.3917C1424.15 39.5549 1422.98 39.9498 1422.38 40.2558C1420.5 40.5516 1418.5 41.0675 1417.99 41.3939C1417.57 41.9498 1417.12 43.0776 1417.04 43.1745C1416.78 43.1286 1414.65 42.9106 1413.6 42.7627C1411.94 43.7572 1409.6 42.4414 1407.25 42.982C1405.82 41.2481 1404.19 40.4803 1403.65 39.9805C1402.56 37.7417 1400.25 35.9014 1399.96 35.6668C1400.07 35.5852 1399.98 35.6025 1400.08 35.5311C1401.62 36.3063 1403.65 39.0115 1404.24 39.9805C1404.54 39.619 1404.89 39.4953 1405.14 39.0961C1406.26 39.861 1410.44 40.3375 1411.05 39.9805C1413.98 38.4505 1413.36 30.2375 1414.53 30.2375C1415.29 30.2375 1416.48 30.2171 1416.8 30.2375C1417.12 30.2579 1417.66 29.6715 1417.54 29.3706C1417.41 29.0703 1417.32 28.7112 1417.08 28.4895C1416.84 28.2678 1416.51 27.9502 1416.2 27.847C1415.61 27.7078 1414.77 27.6695 1414.22 27.9388C1413.67 28.2081 1413.07 28.524 1412.83 29.0769C1411.7 31.4891 1409.63 34.5927 1409.18 36.0155C1408.47 35.2659 1406.76 34.7908 1405.99 34.6021C1405.06 33.7096 1404.52 33.5218 1402.87 33.0985C1402.87 33.0985 1402.7 32.9521 1402.65 32.6564C1403.13 32.7889 1403.71 33.1444 1404.54 33.0985C1405.21 33.073 1405.32 32.0887 1405.6 31.6756C1406.08 31.2064 1406.98 31.645 1406.53 30.2375C1406.39 29.832 1406.39 29.4823 1406.53 29.0769C1406.61 28.7148 1407.03 27.5014 1406.77 27.1495C1406.17 27.0458 1405.44 26.9721 1404.86 27.1495C1403.51 27.5779 1403.37 29.6906 1402.11 30.7106C1401.24 31.2767 1398.89 31.1879 1398.89 31.1879C1398.69 31.6009 1398.42 32.4268 1398.22 32.8399C1395.45 35.4663 1391.57 40.4941 1395.13 50.5306C1397.58 50.7703 1401.74 49.3884 1403.08 47.323C1402.98 46.6212 1402.65 45.8093 1402.37 45.157C1401.12 44.2564 1400 43.3701 1398.89 42.3046C1398.93 42.2383 1398.99 42.2332 1399.03 42.1669C1399.03 42.1669 1402.15 44.9097 1405.14 46.149C1406.17 46.6182 1407.45 46.3122 1408.51 46.1133C1408.51 46.1133 1411.22 45.4197 1414 44.4253C1415.12 44.7108 1416.43 45.1239 1417.99 44.257C1420.05 45.0372 1420.84 44.956 1422.3 45.0835C1422.5 46.2284 1422.68 47.253 1423.06 48.3521C1423.09 49.7087 1422.92 50.3678 1423.06 51.9488C1422.83 52.7902 1422.58 53.0306 1422.56 54.0047C1422.75 55.5091 1422.9 56.8324 1424.14 57.6025C1425.77 58.3828 1429.26 58.6478 1430.26 58.3367C1430.67 56.8374 1431.18 55.2123 1431.76 53.766C1432.83 51.2416 1432.98 48.3164 1432.87 44.8434C1433 44.8434 1433 45.1294 1433.15 45.0835C1433.74 49.5816 1432.35 53.1613 1431.94 54.4261C1432.1 56.976 1432.61 58.9808 1432.68 61.3472C1432.71 61.8265 1433.05 63.0074 1433.61 63.0176C1434.17 63.0278 1437.61 63.0176 1438.45 63.0176C1438.48 62.7682 1438.58 62.1521 1438.45 61.9346C1438.32 61.717 1438.14 61.4521 1437.91 61.3472ZM1402.11 30.2375C1403.01 29.1308 1403.12 27.6911 1404.32 27.0026C1405.12 26.6507 1406.59 26.8201 1407.4 26.764C1407.91 26.7334 1407.8 25.4934 1407.4 25.0752C1405 22.9537 1399.32 20.3166 1396.92 28.5681C1396.27 31.3935 1401.24 31.232 1402.11 30.2375ZM1403.11 47.5433C1401.45 50.0932 1397.22 51.1744 1395.23 50.8786C1395.34 54.1119 1395.8 55.0299 1398.25 56.2029C1398.99 56.2029 1400.67 53.2645 1403.08 51.8161C1402.99 50.5961 1403.13 49.3113 1403.47 48.1354C1403.4 48.0636 1403.61 47.5831 1403.29 47.7881L1403.11 47.5433Z" fill="white"/>
<path d="M1438.44 61.3007C1436.89 60.2501 1435.26 61.265 1435.28 59.6534C1435.39 56.4966 1436.6 53.6611 1435.54 50.4074C1435.54 50.4074 1436.05 45.5625 1435.73 43.7113C1435.53 42.5842 1434.81 40.9064 1433.58 40.1414C1432.45 39.5611 1431.25 39.1144 1430.02 38.8103C1429.9 38.5604 1429.63 38.1218 1429.56 37.9535C1430.21 37.7079 1430.75 37.2606 1431.11 36.6802C1431.47 36.0998 1431.63 35.4184 1431.56 34.7406C1431.33 29.192 1428.8 28.0445 1424.98 28.0139C1421.15 27.9833 1418.61 30.4364 1421.32 32.0938C1421.42 33.3637 1420.8 34.2103 1420.4 35.0262C1419.92 35.9289 1420.64 36.0819 1420.86 36.3879C1421.22 36.9387 1420.89 37.6884 1421.14 38.2697C1421.65 39.0143 1423.45 39.0908 1424.14 38.9582C1424.14 39.0194 1424.14 39.0806 1424.14 39.152C1423.45 39.3323 1422.77 39.5729 1422.13 39.8711C1420.67 40.1376 1419.22 40.478 1417.8 40.8911C1417.29 40.8911 1416.69 40.7228 1416.64 40.4678C1416.47 39.1367 1416.09 38.0861 1415.9 36.7602C1415.9 35.1894 1417.16 34.4142 1418.09 33.94C1418.29 33.8791 1418.47 33.7655 1418.61 33.6112C1418.75 33.4569 1418.85 33.2675 1418.89 33.063C1418.94 32.8585 1418.92 32.6463 1418.85 32.4488C1418.79 32.2514 1418.66 32.0759 1418.5 31.9408C1418.3 31.7811 1418.06 31.6632 1417.81 31.594C1417.56 31.5249 1417.3 31.5058 1417.04 31.5379C1417.04 31.4563 1416.96 30.8086 1416.95 30.671C1417.83 30.6455 1417.98 29.5337 1417.86 29.1767C1417.13 26.8767 1413.74 26.3106 1412.3 29.1461C1411.27 31.5481 1410.14 32.716 1408.77 35.4291C1408.01 34.8488 1407.15 34.424 1406.23 34.1797C1405.93 33.8925 1405.61 33.6361 1405.27 33.4147C1405.62 33.4147 1405.99 32.512 1406.13 32.0683C1406.34 31.4767 1407.34 31.8847 1407.16 30.8495C1406.7 28.9676 1407.33 28.7177 1407.48 27.4122C1409.1 26.8257 1408.42 25.4079 1407.54 24.5511C1405.51 22.4092 1398.88 19.283 1396.48 28.5953C1395.92 30.8495 1397.91 31.2829 1398.32 31.4308L1397.97 32.206C1395.05 34.9242 1390.88 40.2281 1394.7 50.6369C1395 51.6568 1394.43 52.5646 1395.35 54.7881C1393.28 55.7418 1394.79 57.2973 1394.41 60.3266C1394.33 61.576 1395.47 63.4834 1396.2 63.4834H1399.7C1400.21 63.4834 1400.1 60.9743 1398.44 60.5612C1398.46 60.2996 1398.46 60.0373 1398.44 59.7758C1401.79 62.1625 1403.85 63.4018 1407.56 63.8863C1411.63 64.3963 1412.34 60.9437 1411.93 59.684C1413.3 58.4447 1415.5 57.7206 1415.83 56.211C1416.54 58.2365 1417.58 60.1319 1418.92 61.8208C1420.92 64.0393 1424.72 63.6976 1426.49 63.4426C1427.68 63.2641 1429.4 62.3104 1430.45 58.919C1430.88 57.8013 1431.24 56.6585 1431.53 55.497C1431.49 56.4354 1432.22 59.1791 1432.21 61.2598C1432.25 63.4885 1433.14 63.4732 1433.14 63.4732H1439.12C1439.14 62.3767 1439.01 61.7953 1438.44 61.3007ZM1424.52 28.7636C1430.71 28.1924 1430.54 32.5324 1430.67 34.3429C1430.73 35.1996 1430.47 36.6837 1429.34 37.1325C1428.83 37.26 1426.21 36.8112 1425.29 36.6225C1424.36 36.4338 1424.4 35.3475 1424.35 34.8222C1424.27 34.0539 1424.16 33.2896 1424.01 32.5324C1423.86 31.798 1422.83 31.8133 1422.15 31.6348C1419.83 30.7985 1420.99 29.0186 1424.51 28.7636H1424.52ZM1417.4 41.5948C1417.23 41.7937 1416.53 42.7831 1416.53 42.7831L1414.07 42.4363C1414.07 42.4363 1415.74 41.3245 1416.01 41.1359C1416.2 41.3009 1416.41 41.4267 1416.65 41.5055C1416.89 41.5844 1417.14 41.6148 1417.39 41.5948H1417.4ZM1415.93 40.5188C1415.49 40.7891 1414.09 41.5081 1413.61 41.7937C1413.25 41.3195 1413.3 40.121 1413.3 40.121L1415.51 38.8766C1415.68 39.4145 1415.82 39.9631 1415.92 40.5188H1415.93ZM1413.19 39.2744C1413.25 38.5247 1413.33 37.6475 1413.41 37.2702C1413.99 37.2192 1414.65 37.1631 1415.16 37.0815C1415.16 37.0815 1415.33 38.3054 1415.35 38.3105L1413.19 39.2744ZM1417.34 33.5626C1416.19 33.9196 1415.4 35.0925 1415.2 36.5103C1414.27 36.5562 1413.44 36.6072 1413.47 36.6123C1413.55 35.9863 1413.68 35.3683 1413.87 34.7661C1414.14 33.5524 1415.55 32.5681 1416.3 32.359C1418.48 31.8541 1418.42 33.2362 1417.34 33.5626ZM1414.08 33.2362L1414.65 30.7883H1416.14C1416.14 30.7883 1416.21 31.6909 1416.2 31.6552C1415.34 31.9625 1414.61 32.5213 1414.08 33.2566V33.2362ZM1397.22 28.5443C1399.62 20.2928 1404.92 23.2303 1407.32 25.3518C1407.72 25.77 1407.78 26.4738 1407.29 26.5044C1406.48 26.5605 1405.09 26.4126 1404.29 26.7645C1403.09 27.453 1402.99 28.937 1402.09 30.0437C1401.21 31.0586 1396.55 31.39 1397.22 28.5647V28.5443ZM1407.77 63.2998C1403.17 62.8867 1399.01 59.2556 1398.11 58.8272C1397.92 58.8272 1397.89 58.9955 1397.89 59.1332L1397.78 60.7601C1397.78 61.4434 1399.06 60.9029 1399.07 62.5807C1399.07 62.5807 1398.04 62.5807 1396.9 62.5807C1395.76 62.5807 1395.51 61.7545 1395.32 61.1732C1395.18 60.4161 1395.15 59.6431 1395.23 58.8782C1395.35 57.8226 1394.48 56.0223 1395.85 55.6092C1396.45 55.6635 1397.02 55.9271 1397.44 56.3538C1399.84 58.0963 1402.46 59.521 1405.23 60.5918C1405.23 60.5918 1405.47 60.1226 1405.47 60.1226C1403.54 59.4137 1400.83 57.8022 1399.01 56.6394C1399.81 56.1702 1401.76 52.9726 1403.29 52.6156C1404.71 52.6156 1409.81 57.4656 1410.93 59.3168C1412.21 61.4281 1410.47 63.565 1407.77 63.3202V63.2998ZM1422.72 51.7588C1422.61 52.1322 1422.47 52.497 1422.3 52.8502C1422.3 52.8502 1420.29 49.8821 1418.69 47.5413C1419.24 46.4142 1420.33 46.1337 1421.79 47.3832C1422.16 47.6172 1422.46 47.9537 1422.65 48.3521C1422.81 49.6781 1422.62 50.5655 1422.72 51.7792L1422.72 51.7588ZM1418.11 46.9599C1416.78 45.384 1414.34 45.9909 1413.82 47.3679C1413.7 47.0076 1413.49 46.6833 1413.21 46.4243C1412.92 46.1652 1412.58 45.9795 1412.21 45.8838C1412.49 45.8022 1413.76 45.3381 1414.18 45.2718C1415.49 45.6443 1416.88 45.5943 1418.16 45.129C1419.37 45.5492 1420.65 45.7227 1421.93 45.639C1421.97 45.9864 1422.05 46.3283 1422.17 46.659C1420.47 45.5829 1418.96 45.8022 1418.11 46.9803L1418.11 46.9599ZM1412.79 50.1473C1412.14 51.9883 1410.73 56.3028 1410.32 57.4095C1409.71 56.8026 1408.23 55.4358 1408.23 55.4358C1407.5 53.6356 1408.38 51.9883 1409.52 50.6369C1409.51 50.5285 1409.47 50.4242 1409.42 50.3309C1408.39 50.7899 1407.87 52.9675 1406 53.3908C1405.3 52.7788 1404.19 52.0648 1403.66 51.667C1403.52 51.0857 1403.53 48.3878 1403.98 48.1685C1406.47 47.0823 1409.65 46.2867 1410.95 46.4499C1413.62 46.608 1413.45 48.3215 1412.8 50.1677L1412.79 50.1473ZM1407.45 54.8646C1407.11 54.5024 1406.74 54.1617 1406.36 53.8447C1406.75 53.7685 1407.13 53.6141 1407.46 53.3908C1407.35 53.8833 1407.35 54.3918 1407.45 54.885L1407.45 54.8646ZM1403.75 47.5362C1403.63 47.4308 1403.51 47.311 1403.42 47.1792C1403.33 46.7508 1403.16 46.251 1403.05 45.7563C1403.81 46.2747 1404.66 46.6563 1405.55 46.8834L1403.75 47.5362ZM1403.09 47.8932C1403.15 47.9749 1403.22 48.0516 1403.29 48.1226C1402.95 49.2985 1402.82 50.5235 1402.91 51.7435C1400.51 53.1919 1399.02 56.0325 1398.27 56.0325C1395.82 54.8595 1395.53 54.2833 1395.42 51.05C1397.41 51.3661 1401.43 50.4686 1403.11 47.9136L1403.09 47.8932ZM1418.48 60.0002C1416.72 57.4911 1415.87 54.8085 1415.19 51.8404C1415.19 51.8404 1415 52.0903 1414.96 52.1515C1415.05 53.0644 1415.27 53.9773 1415.37 54.8187C1415.67 57.1749 1412.43 58.2356 1411.65 59.123C1411.38 58.7099 1411.06 58.2815 1410.77 57.8786C1411.86 55.0533 1412.75 52.2943 1413.78 49.2089C1414.63 46.557 1416.58 46.0623 1418.13 48.0411C1419.49 49.7769 1420.72 51.6092 1421.81 53.5234C1421.5 53.8753 1419.01 55.344 1418.49 60.0206L1418.48 60.0002ZM1426.65 62.7184C1424.55 63.1927 1420.37 63.1672 1419.1 60.7856C1419.25 58.3785 1420.27 56.1067 1421.98 54.3852C1422.19 56.3232 1423.17 57.6492 1424.33 58.1438C1426.09 58.8356 1428 59.0709 1429.87 58.8272C1429.06 61.1018 1428.36 62.3563 1426.66 62.7388L1426.65 62.7184ZM1433.59 62.7184C1433.04 62.7184 1433 61.627 1432.97 61.1477C1432.89 58.7813 1432.27 56.9658 1432.11 54.4159C1432.52 53.1511 1433.89 49.316 1433.29 44.823C1433.23 44.823 1433 44.7822 1432.87 44.7822C1432.98 48.2552 1432.66 51.1621 1431.59 53.6866C1431.02 55.1328 1430.52 56.6088 1430.11 58.1081C1429.08 58.4039 1426.11 58.1795 1424.48 57.3993C1423.24 56.6292 1422.84 55.8693 1422.65 54.3649C1422.65 53.3908 1423.17 52.8043 1423.4 51.9628C1423.27 50.3819 1423.43 49.5965 1423.4 48.2399C1423.02 47.1408 1422.72 46.0138 1422.51 44.8689C1421.05 44.7414 1420.04 44.976 1417.99 44.1958C1416.45 45.0627 1415.12 44.6496 1414 44.364C1411.22 45.3585 1408.51 46.0521 1408.51 46.0521C1407.45 46.251 1406.18 46.5621 1405.14 46.0878C1402.15 44.8485 1399.02 41.8243 1399.02 41.8243C1398.97 41.911 1398.75 42.2884 1398.71 42.3343C1399.82 43.3998 1401.01 44.3865 1402.26 45.2871C1402.54 45.9394 1402.73 46.6253 1402.83 47.3271C1401.49 49.3925 1397.88 50.5757 1395.42 50.336C1391.86 40.2995 1395.65 35.4699 1398.42 32.8435C1398.61 32.41 1398.88 31.8235 1399.07 31.4104C1399.07 31.4104 1401.43 31.3696 1402.3 30.8036C1403.54 29.7836 1403.51 27.8354 1404.88 27.4071C1405.46 27.2296 1406.07 27.1912 1406.67 27.2949C1406.93 27.6467 1406.51 28.5545 1406.42 28.9166C1406.28 29.3221 1406.28 29.7606 1406.42 30.1661C1406.88 31.5736 1406.01 30.9667 1405.54 31.4359C1405.26 31.849 1405.21 33.0118 1404.54 33.0373C1403.71 33.0832 1403.03 32.6344 1402.56 32.5018C1402.61 32.7976 1402.7 33.2362 1402.7 33.2158C1404.35 33.6391 1404.93 33.9043 1405.86 34.7967C1406.63 34.9854 1408.56 35.7147 1409.26 36.4644C1409.71 35.0415 1411.84 31.9 1412.97 29.4878C1413.21 28.9349 1413.65 28.4846 1414.19 28.2153C1414.74 27.9459 1415.36 27.8747 1415.96 28.0139C1416.27 28.1171 1416.55 28.2852 1416.79 28.5069C1417.03 28.7286 1417.22 28.9988 1417.35 29.2991C1417.49 29.6 1417.17 30.1916 1416.83 30.1763C1416.5 30.161 1415.18 30.0641 1414.43 30.0641C1413.26 30.0641 1413.61 38.2238 1410.67 39.7538C1410.06 40.1108 1406.08 39.305 1404.96 38.54C1404.7 38.9393 1404.42 39.3209 1404.12 39.6824C1403.53 38.7134 1401.64 36.2451 1400.08 35.4699C1399.96 35.5413 1399.65 35.5413 1399.56 35.6229C1399.88 35.8575 1402.37 37.8566 1403.46 40.0955C1403.97 40.6055 1405.71 41.4826 1407.14 43.2166C1409.49 42.676 1411.98 43.9153 1413.64 42.9208C1414.67 43.0687 1416.82 43.3594 1417.08 43.4053C1417.19 43.3084 1417.78 42.268 1418.2 41.7121C1418.71 41.3857 1420.53 40.9064 1422.41 40.6106C1423.01 40.3046 1424.52 39.7538 1424.89 39.5906C1424.91 39.1283 1424.82 38.668 1424.63 38.2442C1423.94 38.3 1423.25 38.2657 1422.57 38.1422C1421.65 37.8924 1421.98 36.7602 1421.76 36.036C1421.62 35.7606 1420.9 35.8167 1421.32 35.0823C1421.79 34.2593 1422.05 33.3316 1422.06 32.3845C1422.37 32.104 1423.21 32.4151 1423.35 32.7415C1423.61 33.7594 1423.76 34.8029 1423.78 35.8524C1423.83 36.2164 1424.01 36.5524 1424.28 36.8047C1424.55 37.057 1424.89 37.2104 1425.27 37.2396C1426.05 37.3212 1427.92 37.6323 1428.53 37.6476C1428.89 38.1575 1429.05 38.6675 1429.41 39.3305C1430.05 39.6161 1431.74 39.8405 1432.78 40.3862C1433.4 40.7461 1433.92 41.245 1434.3 41.8417C1434.68 42.4384 1434.91 43.1159 1434.97 43.8184C1435.28 47.1129 1434.97 48.4694 1434.77 50.6573C1435.8 53.3857 1434.68 58.9598 1434.69 59.633C1434.69 60.0257 1434.75 61.0457 1435.38 61.163C1436 61.2802 1437.02 61.1987 1437.64 61.5046C1437.87 61.6021 1438.06 61.7663 1438.19 61.9751C1438.32 62.1838 1438.38 62.4272 1438.37 62.6725C1437.51 62.7337 1434.16 62.7592 1433.6 62.749L1433.59 62.7184ZM1412.98 42.421C1412.29 43.1809 1409.42 41.911 1407.31 42.421C1406.44 41.2582 1405.04 40.478 1404.64 40.1465C1404.79 39.8915 1404.89 39.764 1405.08 39.4631C1405.59 39.8048 1408.31 40.4831 1410.5 40.6004C1411.34 40.5698 1412.46 39.0245 1412.46 39.0245C1412.57 40.0649 1412.41 41.2123 1412.96 42.4516L1412.98 42.421Z" fill="#1D1D1B"/>
<rect x="1560" y="19" width="61" height="1" rx="0.5" transform="rotate(90 1560 19)" fill="#2A2A2A"/>
</svg>
